Chapter 10 Cleaning Data in R | Data Scientist with R
…
Before you can do this, the date column needs to be converted from a character to a Date. R makes it easy to check if one Date object is before (<) or after (>) another.

# Load dataset again and create future data
bike_share_rides <- read_rds("data/bike_share_rides_ch1_1.rds")
bike_share_rides$date <- str_replace_all(bike_share_rides$date, "2017-04-25", "2043-02-17")

# Convert date to Date type 
bike_share_rides <- bike_share_rides %>%
  mutate(date = as.Date(date))

# Make sure all dates are in the past
bike_share_rides %>% filter(date > today())

## # A tibble: 1,204 × 10
##    ride_id date       duration      station_A_id station_A_name     station_B_id
##      <int> <date>     <chr>                <dbl> <chr>                     <dbl>
##  1   69172 2043-02-17 12.68 minutes           16 Steuart St at Mar…           80
##  2   63197 2043-02-17 4.07 minutes            67 San Francisco Cal…          321
##  3   61811 2043-02-17 12.25 minutes           21 Montgomery St BAR…           74
##  4   48844 2043-02-17 11 minutes              30 San Francisco Cal…          126
##  5   79817 2043-02-17 12.02 minutes           15 San Francisco Fer…            3
##  6   72592 2043-02-17 18 minutes              30 San Francisco Cal…           10
##  7   66670 2043-02-17 7.23 minutes            16 Steuart St at Mar…           50
##  8   66471 2043-02-17 13 minutes               5 Powell St BART St…           92
##  9   79675 2043-02-17 7.95 minutes             3 Powell St BART St…           26
## 10   86488 2043-02-17 3.5 minutes             67 San Francisco Cal…           90
## # ℹ 1,194 more rows
## # ℹ 4 more variables: station_B_name <chr>, bike_id <dbl>, user_gender <chr>,
## #   user_birth_year <dbl>
…
Aggregating partial duplicates

Another way of handling partial duplicates is to compute a summary statistic of the values that differ between partial duplicates, such as mean, median, maximum, or minimum. This can come in handy when you’re not sure how your data was collected and want an average, or if based on domain knowledge, you’d rather have too high of an estimate than too low of an estimate (or vice versa).

bike_share_rides %>%
  # Group by ride_id and date
  group_by(ride_id, date) %>%
  # Add duration_min_avg column
  mutate(duration_min_avg = mean(duration_min)) %>%
  # Remove duplicates based on ride_id and date, keep all cols
  distinct(ride_id, date, .keep_all = T) %>%
  # Remove duration_min column
  select(-duration_min)

## # A tibble: 35,229 × 6
## # Groups:   ride_id, date [35,229]
##    ride_id date      station_A_id station_A_name   station_B_id duration_min_avg
##      <dbl> <chr>            <dbl> <chr>                   <dbl>            <dbl>
##  1   52797 4/15/2017           67 "San Francisco …           89          1316   
##  2   54540 4/19/2017           21 "Montgomery St …           64             8.13
##  3   87695 4/14/2017           16 "Steuart St at …          355            24.8 
##  4   45619 4/3/2017            58 "Market St at 1…          368             6.35
##  5   70832 4/10/2017           16 "Steuart St at …           81             9.8 
##  6   96135 4/18/2017            6 "The Embarcader…           66            17.5 
##  7   29928 4/22/2017            5 "Powell St BART…          350            16.5 
##  8   83331 4/11/2017           16 "Steuart St at …           91            14.7 
##  9   72424 4/5/2017             5 "Powell St BART…           62             4.12
## 10   25910 4/20/2017           81 "Berry St at 4t…           81            25.8 
## # ℹ 35,219 more rows
…
You found that some phone numbers are written with hyphens (-) and some are written with parentheses (()). In this exercise, you’ll figure out which phone numbers have these issues so that you know which ones need fixing.

# Filter for rows with "-" in the phone column
sfo_survey %>%
  filter(str_detect(phone, "-"))

## # A tibble: 1,421 × 4
##       id airline          destination          phone         
##    <dbl> <chr>            <chr>                <chr>         
##  1  1844 TURKISH AIRLINES ISTANBUL             731-813-2043  
##  2  1840 TURKISH AIRLINES ISTANBUL             563-732-6802  
##  3  3010 AMERICAN         MIAMI                (637) 782-6989
##  4  2097 UNITED INTL      MEXICO CITY          (359) 803-9809
##  5  1835 TURKISH AIRLINES ISTANBUL             (416) 788-2844
##  6  1849 TURKISH AIRLINES ISTANBUL             311-305-4367  
##  7  2289 QANTAS           SYDNEY               817-400-0481  
##  8   105 UNITED           WASHINGTON DC-DULLES (729) 609-4819
##  9  1973 CATHAY PACIFIC   HONG KONG            (201) 737-4409
## 10  2385 UNITED INTL      SYDNEY               (137) 611-3694
## # ℹ 1,411 more rows

Searching for special characters requires using fixed() :

str_detect(column, fixed("$"))

# Filter for rows with "(" or ")" in the phone column
sfo_survey %>%
  filter(str_detect(phone, fixed("(")) | str_detect(phone, fixed(")")))

## # A tibble: 739 × 4
##       id airline          destination          phone         
##    <dbl> <chr>            <chr>                <chr>         
##  1  3010 AMERICAN         MIAMI                (637) 782-6989
##  2  2097 UNITED INTL      MEXICO CITY          (359) 803-9809
##  3  1835 TURKISH AIRLINES ISTANBUL             (416) 788-2844
##  4   105 UNITED           WASHINGTON DC-DULLES (729) 609-4819
##  5  1973 CATHAY PACIFIC   HONG KONG            (201) 737-4409
##  6  2385 UNITED INTL      SYDNEY               (137) 611-3694
##  7   517 UNITED           FT. LAUDERDALE       (812) 869-6263
##  8  2885 EVA AIR          TAIPEI               (194) 198-0504
##  9  2128 FRONTIER         DENVER               (299) 137-6993
## 10  2132 FRONTIER         DENVER               (739) 710-2966
## # ℹ 729 more rows
…
# Add phone_no_parens as column
sfo_survey <- sfo_survey %>%
  mutate(phone_no_parens = phone_no_parens,
  # Replace all hyphens in phone_no_parens with spaces
         phone_clean = str_replace_all(phone_no_parens, "-", " "))

sfo_survey

## # A tibble: 2,809 × 6
##       id airline          destination phone          phone_no_parens phone_clean
##    <dbl> <chr>            <chr>       <chr>          <chr>           <chr>      
##  1  1842 TURKISH AIRLINES ISTANBUL    858 990 5153   858 990 5153    858 990 51…
##  2  1844 TURKISH AIRLINES ISTANBUL    731-813-2043   731-813-2043    731 813 20…
##  3  1840 TURKISH AIRLINES ISTANBUL    563-732-6802   563-732-6802    563 732 68…
##  4  1837 TURKISH AIRLINES ISTANBUL    145 725 4021   145 725 4021    145 725 40…
##  5  1833 TURKISH AIRLINES ISTANBUL    931 311 5801   931 311 5801    931 311 58…
##  6  3010 AMERICAN         MIAMI       (637) 782-6989 637 782-6989    637 782 69…
##  7  1838 TURKISH AIRLINES ISTANBUL    172 990 3485   172 990 3485    172 990 34…
##  8  1845 TURKISH AIRLINES ISTANBUL    872 325 4341   872 325 4341    872 325 43…
##  9  2097 UNITED INTL      MEXICO CITY (359) 803-9809 359 803-9809    359 803 98…
## 10  1846 TURKISH AIRLINES ISTANBUL    152 790 8238   152 790 8238    152 790 82…
## # ℹ 2,799 more rows
…
## # A tibble: 5 × 6
##      id airline   destination          phone    phone_no_parens phone_clean
##   <dbl> <chr>     <chr>                <chr>    <chr>           <chr>      
## 1  2262 UNITED    BAKERSFIELD          0244-5   0244-5          0244 5     
## 2  3081 COPA      PANAMA CITY          925 8846 925 8846        925 8846   
## 3   340 SOUTHWEST PHOENIX              1623     1623            1623       
## 4  1128 DELTA     MINNEAPOLIS-ST. PAUL 665-803  665-803         665 803    
## 5   373 ALASKA    SAN JOSE DEL CABO    38515    38515           38515

# Remove rows with invalid numbers
sfo_survey %>%
  filter(str_length(phone_clean) == 12)

## # A tibble: 2,804 × 6
##       id airline          destination phone          phone_no_parens phone_clean
##    <dbl> <chr>            <chr>       <chr>          <chr>           <chr>      
##  1  1842 TURKISH AIRLINES ISTANBUL    858 990 5153   858 990 5153    858 990 51…
##  2  1844 TURKISH AIRLINES ISTANBUL    731-813-2043   731-813-2043    731 813 20…
##  3  1840 TURKISH AIRLINES ISTANBUL    563-732-6802   563-732-6802    563 732 68…
##  4  1837 TURKISH AIRLINES ISTANBUL    145 725 4021   145 725 4021    145 725 40…
##  5  1833 TURKISH AIRLINES ISTANBUL    931 311 5801   931 311 5801    931 311 58…
##  6  3010 AMERICAN         MIAMI       (637) 782-6989 637 782-6989    637 782 69…
##  7  1838 TURKISH AIRLINES ISTANBUL    172 990 3485   172 990 3485    172 990 34…
##  8  1845 TURKISH AIRLINES ISTANBUL    872 325 4341   872 325 4341    872 325 43…
##  9  2097 UNITED INTL      MEXICO CITY (359) 803-9809 359 803-9809    359 803 98…
## 10  1846 TURKISH AIRLINES ISTANBUL    152 790 8238   152 790 8238    152 790 82…
## # ℹ 2,794 more rows
…
## [1] 8.364134

floor(as.numeric(date_difference, "years"))

## [1] 8

# Find invalid acct_age
accounts %>%
  # theoretical_age: age of acct based on date_opened
  mutate(theoretical_age = floor(as.numeric(date_opened %--% today(), "years"))) %>%
  # Filter for rows where acct_age is different from theoretical_age
  filter(acct_age != theoretical_age)

## # A tibble: 23 × 8
##    id       date_opened  total fund_A fund_B fund_C acct_age theoretical_age
##    <chr>    <date>       <dbl>  <dbl>  <dbl>  <dbl>    <dbl>           <dbl>
##  1 53AE87EF 2017-12-01  147846  38450  29185  80211        5               6
##  2 645335B2 2018-11-16  154001  68691  56400  28910        4               5
##  3 40E4A2F4 2009-01-07  180547  82564  68210  29773       14              15
##  4 387F8E4D 2011-01-03   90410   7520  67142  15748       12              13
##  5 11C3C3C0 2017-12-24  180003  84295  31591  64117        4               6
##  6 420985EE 2008-12-27  123125  59390  27890  35845       14              15
##  7 0E3903BA 2015-11-11  182668  47236  87437  47995        7               8
##  8 CCF84EDB 2008-12-26  136128  33405  89016  13707       14              15
##  9 92C237C6 2005-12-13   85362  72556  21739  19537       17              18
## 10 DF0AFE50 2004-12-03  146635  67373  63443  15819       18              19
## # ℹ 13 more rows
…
## [1]  9 14

You want to figure out how many unique customers the bank has, as well as the average amount held by customers.

You know that rows with missing cust_id don’t really help you, you will drop rows of accounts with missing cust_ids.

# Create accounts_clean
accounts_clean <- accounts %>%
  # Filter to remove rows with missing cust_id
  filter(!is.na(cust_id))

accounts_clean

## # A tibble: 88 × 5
##    cust_id  acct_amount inv_amount account_opened last_transaction
##    <chr>          <dbl>      <dbl> <chr>          <chr>           
##  1 8C35540A      44245.     35500. 03-05-18       30-09-19        
##  2 D5536652         NA      81922. 21-01-18       14-01-19        
##  3 A631984D         NA      46412. 26-01-18       06-10-19        
##  4 93F2F951         NA      76563. 21-08-17       10-07-19        
##  5 DE0A0882         NA      18669. 05-06-17       15-01-19        
##  6 25E68E1B     109738.     93553. 26-12-17       12-11-18        
##  7 3FA9296D         NA      70358. 21-06-18       24-08-18        
##  8 984403B9         NA      14430. 07-10-17       18-05-18        
##  9 870A9281      63523.     51297. 02-09-18       22-02-19        
## 10 166B05B0      38175.     15053. 28-02-19       31-10-18        
## # ℹ 78 more rows
…
The city column contains the name of the city that the restaurant is located in. However, there are a number of typos throughout the column.

Your task is to map each city to one of the five correctly-spelled cities contained in the cities data frame.

cities <- data.frame(city_actual = c("new york", "los angeles", "atlanta", "san francisco", "las vegas"))

# Count the number of each city variation
zagat %>%
  count(city)

## # A tibble: 63 × 2
##    city             n
##    <chr>        <int>
##  1 aatlanta         3
##  2 an francisco     1
##  3 aotlanta         2
##  4 atalanta         1
##  5 atanta           1
##  6 atlannta         2
##  7 atlanta         48
##  8 atlata           2
##  9 ew york          2
## 10 la vegas         2
## # ℹ 53 more rows

library(fuzzyjoin)

## Warning: package 'fuzzyjoin' was built under R version 4.3.2

# Join zagat and cities and look at results
zagat %>%
  # Left join based on stringdist using city and city_actual cols
  stringdist_left_join(cities, by = c("city" = "city_actual")) %>%
  # Select the name, city, and city_actual cols
  select(name, city, city_actual)

## # A tibble: 310 × 3
##    name                      city         city_actual
##    <chr>                     <chr>        <chr>      
##  1 apple pan the             llos angeles los angeles
##  2 asahi ramen               los angeles  los angeles
##  3 baja fresh                los angeles  los angeles
##  4 belvedere the             los angeles  los angeles
##  5 benita's frites           lo angeles   los angeles
##  6 bernard's                 los angeles  los angeles
##  7 bistro 45                 lo angeles   los angeles
##  8 brighton coffee shop      los angeles  los angeles
##  9 bristol farms market cafe los anegeles los angeles
## 10 cafe'50s                  los angeles  los angeles
## # ℹ 300 more rows
…
