Chapter 12 Introduction to Writing Functions | Data Scientist with R
…
## 
## $coefficients
## # A tibble: 7 × 5
##   term              estimate std.error statistic   p.value
##   <chr>                <dbl>     <dbl>     <dbl>     <dbl>
## 1 (Intercept)         4.09      0.0279   146.    0        
## 2 genderfemale        0.374     0.0212    17.6   2.18e- 69
## 3 income($25k,$55k]  -0.0199    0.0267    -0.746 4.56e-  1
## 4 income($55k,$95k]  -0.581     0.0343   -16.9   3.28e- 64
## 5 income($95k,$Inf)  -0.578     0.0310   -18.7   6.88e- 78
## 6 travel(0.25h,4h]   -0.627     0.0217   -28.8   5.40e-183
## 7 travel(4h,Infh)    -2.42      0.0492   -49.3   0        
## 
## $observations
## # A tibble: 346 × 11
##    .rownames n_visits gender income      travel   .fitted  .resid    .hat .sigma
##    <chr>        <dbl> <fct>  <fct>       <fct>      <dbl>   <dbl>   <dbl>  <dbl>
##  1 25               2 female ($95k,$Inf) (4h,Inf…    1.46  -1.24  0.0109    5.84
##  2 26               1 female ($95k,$Inf) (4h,Inf…    1.46  -1.92  0.0109    5.84
##  3 27               1 male   ($95k,$Inf) (0.25h,…    2.88  -5.28  0.0129    5.83
##  4 29               1 male   ($95k,$Inf) (4h,Inf…    1.09  -1.32  0.00711   5.84
##  5 30               1 female ($55k,$95k] (4h,Inf…    1.46  -1.92  0.0121    5.84
##  6 31               1 male   [$0,$25k]   [0h,0.2…    4.09 -10.4   0.0465    5.81
##  7 33              80 female [$0,$25k]   [0h,0.2…    4.46  -0.710 0.0479    5.84
##  8 34             104 female ($95k,$Inf) [0h,0.2…    3.88   6.90  0.0332    5.83
##  9 35              55 male   ($25k,$55k] (0.25h,…    3.44   3.85  0.0153    5.84
## 10 36             350 female ($25k,$55k] [0h,0.2…    4.44  21.5   0.0360    5.72
## # ℹ 336 more rows
## # ℹ 2 more variables: .cooksd <dbl>, .std.resid <dbl>
…
## # A tibble: 7 × 5
##   term              estimate std.error statistic   p.value
##   <chr>                <dbl>     <dbl>     <dbl>     <dbl>
## 1 (Intercept)         4.09      0.0279   146.    0        
## 2 genderfemale        0.374     0.0212    17.6   2.18e- 69
## 3 income($25k,$55k]  -0.0199    0.0267    -0.746 4.56e-  1
## 4 income($55k,$95k]  -0.581     0.0343   -16.9   3.28e- 64
## 5 income($95k,$Inf)  -0.578     0.0310   -18.7   6.88e- 78
## 6 travel(0.25h,4h]   -0.627     0.0217   -28.8   5.40e-183
## 7 travel(4h,Infh)    -2.42      0.0492   -49.3   0

## # A tibble: 346 × 11
##    .rownames n_visits gender income      travel   .fitted  .resid    .hat .sigma
##    <chr>        <dbl> <fct>  <fct>       <fct>      <dbl>   <dbl>   <dbl>  <dbl>
##  1 25               2 female ($95k,$Inf) (4h,Inf…    1.46  -1.24  0.0109    5.84
##  2 26               1 female ($95k,$Inf) (4h,Inf…    1.46  -1.92  0.0109    5.84
##  3 27               1 male   ($95k,$Inf) (0.25h,…    2.88  -5.28  0.0129    5.83
##  4 29               1 male   ($95k,$Inf) (4h,Inf…    1.09  -1.32  0.00711   5.84
##  5 30               1 female ($55k,$95k] (4h,Inf…    1.46  -1.92  0.0121    5.84
##  6 31               1 male   [$0,$25k]   [0h,0.2…    4.09 -10.4   0.0465    5.81
##  7 33              80 female [$0,$25k]   [0h,0.2…    4.46  -0.710 0.0479    5.84
##  8 34             104 female ($95k,$Inf) [0h,0.2…    3.88   6.90  0.0332    5.83
##  9 35              55 male   ($25k,$55k] (0.25h,…    3.44   3.85  0.0153    5.84
## 10 36             350 female ($25k,$55k] [0h,0.2…    4.44  21.5   0.0360    5.72
## # ℹ 336 more rows
## # ℹ 2 more variables: .cooksd <dbl>, .std.resid <dbl>
…
Look at the huge increase in yields from the time of the Green Revolution in the 1950s.

12.4.2.2 A nation divided

The USA has a varied climate, so we might expect yields to differ between states. Rather than trying to reason about 50 states separately, we can use the USA Census Regions to get 9 groups.

The “Corn Belt”, where most US corn is grown is in the “West North Central” and “East North Central” regions. The “Wheat Belt” is in the “West South Central” region.

usa_census_regions <- read_delim("data/usa_census_regions.txt", delim = ",")
usa_census_regions

## # A tibble: 51 × 2
##    census_region      state        
##    <chr>              <chr>        
##  1 New England        Connecticut  
##  2 New England        Maine        
##  3 New England        Massachusetts
##  4 New England        New Hampshire
##  5 New England        Rhode Island 
##  6 New England        Vermont      
##  7 Mid-Atlantic       New Jersey   
##  8 Mid-Atlantic       New York     
##  9 Mid-Atlantic       Pennsylvania 
## 10 East North Central Illinois     
## # ℹ 41 more rows
…
