Chapter 5 Joining Data | Data Scientist with R
…
table1 %>%
    inner_join(table2, by = c(table2_key = table1_key), suffix = c("_chr1", "_chr2"))

# For example
sets %>%
    inner_join(themes, by = c("theme_id" = "id"), suffix = c("_set", "_theme"))

5.1.1 Join by keys

# Add the correct verb, table, and joining column
parts %>% 
  inner_join(part_categories, by = c("part_cat_id" = "id"))

## # A tibble: 52,600 × 5
##    part_num name.x                              part_cat_id part_material name.y
##    <chr>    <chr>                                     <dbl> <chr>         <chr> 
##  1 003381   Sticker Sheet for Set 663-1                  58 Plastic       Stick…
##  2 003383   Sticker Sheet for Sets 618-1, 628-2          58 Plastic       Stick…
##  3 003402   Sticker Sheet for Sets 310-3, 311-…          58 Plastic       Stick…
##  4 003429   Sticker Sheet for Set 1550-1                 58 Plastic       Stick…
##  5 003432   Sticker Sheet for Sets 357-1, 355-…          58 Plastic       Stick…
##  6 003434   Sticker Sheet for Set 575-2, 653-1…          58 Plastic       Stick…
##  7 003435   Sticker Sheet for Set 687-1                  58 Plastic       Stick…
##  8 003436   Sticker Sheet for Set 180-1                  58 Plastic       Stick…
##  9 003437   Sticker Sheet for Set 181-1                  58 Plastic       Stick…
## 10 003438   Sticker Sheet for Set 131-1                  58 Plastic       Stick…
## # ℹ 52,590 more rows

# Use the suffix argument to replace .x and .y suffixes
parts %>% 
    inner_join(part_categories, by = c("part_cat_id" = "id"), 
               suffix = c("_part", "_category"))

## # A tibble: 52,600 × 5
##    part_num name_part                    part_cat_id part_material name_category
##    <chr>    <chr>                              <dbl> <chr>         <chr>        
##  1 003381   Sticker Sheet for Set 663-1           58 Plastic       Stickers     
##  2 003383   Sticker Sheet for Sets 618-…          58 Plastic       Stickers     
##  3 003402   Sticker Sheet for Sets 310-…          58 Plastic       Stickers     
##  4 003429   Sticker Sheet for Set 1550-1          58 Plastic       Stickers     
##  5 003432   Sticker Sheet for Sets 357-…          58 Plastic       Stickers     
##  6 003434   Sticker Sheet for Set 575-2…          58 Plastic       Stickers     
##  7 003435   Sticker Sheet for Set 687-1           58 Plastic       Stickers     
##  8 003436   Sticker Sheet for Set 180-1           58 Plastic       Stickers     
##  9 003437   Sticker Sheet for Set 181-1           58 Plastic       Stickers     
## 10 003438   Sticker Sheet for Set 131-1           58 Plastic       Stickers     
## # ℹ 52,590 more rows

5.1.2 Join with a one-to-many relationship

This is an example of a one-to-many relationship. And by the same variable. Notice that the table increased in the number of rows after the join.

# Combine the parts and inventory_parts tables
parts %>%
    inner_join(inventory_parts, by = "part_num")

## # A tibble: 1,179,869 × 9
##    part_num name        part_cat_id part_material inventory_id color_id quantity
##    <chr>    <chr>             <dbl> <chr>                <dbl>    <dbl>    <dbl>
##  1 003381   Sticker Sh…          58 Plastic              15865     9999        1
##  2 003383   Sticker Sh…          58 Plastic               8376     9999        1
##  3 003383   Sticker Sh…          58 Plastic              11738     9999        1
##  4 003402   Sticker Sh…          58 Plastic                470     9999        1
##  5 003402   Sticker Sh…          58 Plastic                885     9999        1
##  6 003402   Sticker Sh…          58 Plastic              12659     9999        1
##  7 003429   Sticker Sh…          58 Plastic               3993     9999        1
##  8 003432   Sticker Sh…          58 Plastic               8191     9999        1
##  9 003434   Sticker Sh…          58 Plastic               8756     9999        1
## 10 003434   Sticker Sh…          58 Plastic              12826     9999        1
## # ℹ 1,179,859 more rows
## # ℹ 2 more variables: is_spare <lgl>, img_url <chr>

5.1.3 Join in either direction

An inner_join works the same way with either table in either position. The table that is specified first is arbitrary, since you will end up with the same information in the resulting table either way.(table先後順序不同所得結果一樣)

# Combine the parts and inventory_parts tables
inventory_parts %>%
  inner_join(parts, by = "part_num")

## # A tibble: 1,179,869 × 9
##    inventory_id part_num    color_id quantity is_spare img_url name  part_cat_id
##           <dbl> <chr>          <dbl>    <dbl> <lgl>    <chr>   <chr>       <dbl>
##  1            1 48379c01          72        1 FALSE    https:… Larg…          41
##  2            1 48395              7        1 FALSE    https:… Spor…          27
##  3            1 stickerupn…     9999        1 FALSE    <NA>    Stic…          58
##  4            1 upn0342            0        1 FALSE    <NA>    Spor…          27
##  5            1 upn0350           25        1 FALSE    <NA>    Spor…          13
##  6            3 2343              47        1 FALSE    https:… Equi…          27
##  7            3 3003              29        1 FALSE    https:… Bric…          11
##  8            3 30176              2        1 FALSE    https:… Plan…          28
##  9            3 3020              15        1 FALSE    https:… Plat…          14
## 10            3 3022              15        2 FALSE    https:… Plat…          14
## # ℹ 1,179,859 more rows
## # ℹ 1 more variable: part_material <chr>
…
sets %>%
  # Add inventories using an inner join 
  inner_join(inventories, by = "set_num") %>%
  # Add inventory_parts using an inner join 
  inner_join(inventory_parts, by = c("id" = "inventory_id"))

## # A tibble: 1,113,729 × 13
##    set_num name   year theme_id num_parts img_url.x          id version part_num
##    <chr>   <chr> <dbl>    <dbl>     <dbl> <chr>           <dbl>   <dbl> <chr>   
##  1 001-1   Gears  1965        1        43 https://cdn.re… 24696       1 132a    
##  2 001-1   Gears  1965        1        43 https://cdn.re… 24696       1 3020    
##  3 001-1   Gears  1965        1        43 https://cdn.re… 24696       1 3062c   
##  4 001-1   Gears  1965        1        43 https://cdn.re… 24696       1 3404bc01
##  5 001-1   Gears  1965        1        43 https://cdn.re… 24696       1 36      
##  6 001-1   Gears  1965        1        43 https://cdn.re… 24696       1 7039    
##  7 001-1   Gears  1965        1        43 https://cdn.re… 24696       1 7049bc01
##  8 001-1   Gears  1965        1        43 https://cdn.re… 24696       1 715     
##  9 001-1   Gears  1965        1        43 https://cdn.re… 24696       1 741     
## 10 001-1   Gears  1965        1        43 https://cdn.re… 24696       1 742     
## # ℹ 1,113,719 more rows
## # ℹ 4 more variables: color_id <dbl>, quantity <dbl>, is_spare <lgl>,
## #   img_url.y <chr>

# Count the number of colors and sort
sets %>%
  inner_join(inventories, by = "set_num") %>%
  inner_join(inventory_parts, by = c("id" = "inventory_id")) %>%
  inner_join(colors, by = c("color_id" = "id"), 
             suffix = c("_set", "_color")) %>%
  count(name_color) %>%
  arrange(desc(n))

## # A tibble: 250 × 2
##    name_color             n
##    <chr>              <int>
##  1 Black             198156
##  2 White             126555
##  3 Light Bluish Gray 121453
##  4 Dark Bluish Gray   89669
##  5 Red                84521
##  6 Yellow             57755
##  7 Blue               45305
##  8 Reddish Brown      37606
##  9 Tan                34831
## 10 Light Gray         28104
## # ℹ 240 more rows
…
# Combine the star_destroyer and millennium_falcon tables
millennium_falcon %>%
  left_join(star_destroyer, by = c("part_num", "color_id"), 
            suffix = c("_falcon", "_star_destroyer"))

## Warning in left_join(., star_destroyer, by = c("part_num", "color_id"), : Detected an unexpected many-to-many
## relationship between `x` and `y`.
## ℹ Row 4 of `x` matches multiple rows in `y`.
## ℹ Row 3 of `y` matches multiple rows in `x`.
## ℹ If a many-to-many relationship is expected,
##   set `relationship = "many-to-many"` to
##   silence this warning.

## # A tibble: 247 × 10
##    set_num_falcon part_num color_id quantity_falcon is_spare_falcon
##    <chr>          <chr>       <dbl>           <dbl> <lgl>          
##  1 7965-1         63868          71              62 FALSE          
##  2 7965-1         3023            0              60 FALSE          
##  3 7965-1         3021           72              46 FALSE          
##  4 7965-1         2780            0              37 FALSE          
##  5 7965-1         2780            0              37 FALSE          
##  6 7965-1         60478          72              36 FALSE          
##  7 7965-1         6636           71              34 FALSE          
##  8 7965-1         3009           71              28 FALSE          
##  9 7965-1         3665           71              22 FALSE          
## 10 7965-1         2412b          72              20 FALSE          
## # ℹ 237 more rows
## # ℹ 5 more variables: img_url_falcon <chr>, set_num_star_destroyer <chr>,
## #   quantity_star_destroyer <dbl>, is_spare_star_destroyer <lgl>,
## #   img_url_star_destroyer <chr>
…
## # A tibble: 1 × 5
##      id name_parent  parent_id id_child name_child      
##   <dbl> <chr>            <dbl>    <dbl> <chr>           
## 1   246 Harry Potter        NA      667 Fantastic Beasts

Joining themes to their grandchildren

Some themes actually have grandchildren: their children’s children. Here, we can inner join themes to a filtered version of itself again to establish a connection between our last join’s children and their children.

# Join themes to itself again to find the grandchild relationships
themes %>% 
  inner_join(themes, by = c("id" = "parent_id"), suffix = c("_parent", "_child")) %>%
  inner_join(themes, by = c("id_child" = "parent_id"), suffix = c("_parent", "_grandchild"))

## # A tibble: 23 × 7
##    id_parent name_parent parent_id id_child name_child id_grandchild name       
##        <dbl> <chr>           <dbl>    <dbl> <chr>              <dbl> <chr>      
##  1       206 Seasonal           NA      207 Advent               208 City       
##  2       206 Seasonal           NA      207 Advent               209 Star Wars  
##  3       206 Seasonal           NA      207 Advent               210 Belville   
##  4       206 Seasonal           NA      207 Advent               211 Castle     
##  5       206 Seasonal           NA      207 Advent               212 Classic Ba…
##  6       206 Seasonal           NA      207 Advent               213 Clikits    
##  7       206 Seasonal           NA      207 Advent               214 Creator    
##  8       206 Seasonal           NA      207 Advent               215 Pirates    
##  9       206 Seasonal           NA      207 Advent               216 Friends    
## 10       206 Seasonal           NA      207 Advent               710 Harry Pott…
## # ℹ 13 more rows

Left joining a table to itself

themes %>% 
  # Left join the themes table to its own children
  left_join(themes, by = c("id" = "parent_id"), suffix = c("_parent", "_child")) %>%
  # Filter for themes that have no child themes
  filter(is.na(name_child))

## # A tibble: 412 × 5
##       id name_parent            parent_id id_child name_child
##    <dbl> <chr>                      <dbl>    <dbl> <chr>     
##  1     3 Competition                    1       NA <NA>      
##  2     4 Expert Builder                 1       NA <NA>      
##  3    16 RoboRiders                     1       NA <NA>      
##  4    17 Speed Slammers                 1       NA <NA>      
##  5    18 Star Wars                      1       NA <NA>      
##  6    19 Supplemental                   1       NA <NA>      
##  7    20 Throwbot Slizer                1       NA <NA>      
##  8    21 Universal Building Set         1       NA <NA>      
##  9    23 Basic Model                   22       NA <NA>      
## 10    35 Bricks & More                 34       NA <NA>      
## # ℹ 402 more rows
…
inventory_parts_joined <- inventories %>%
  inner_join(inventory_parts, by = c("id" = "inventory_id")) %>%
  arrange(desc(quantity)) %>%
  select(-id, -version)

# Start with inventory_parts_joined table
inventory_sets_themes <- inventory_parts_joined %>%
    # Combine with the sets table 
    inner_join(sets, by = "set_num") %>%
    # Combine with the themes table 
    inner_join(themes, by = c("theme_id" = "id"), suffix = c("_set", "_theme"))

inventory_sets_themes

## # A tibble: 1,113,729 × 13
##    set_num part_num color_id quantity is_spare img_url.x name_set  year theme_id
##    <chr>   <chr>       <dbl>    <dbl> <lgl>    <chr>     <chr>    <dbl>    <dbl>
##  1 31203-1 6141           15     3064 FALSE    https://… World M…  2021      709
##  2 31203-1 98138           3     1879 FALSE    https://… World M…  2021      709
##  3 31203-1 98138         322     1607 FALSE    https://… World M…  2021      709
##  4 k34432… 3024           15     1440 FALSE    https://… Lego Mo…  2003      277
##  5 k34433… 3024           15     1170 FALSE    https://… Lego Mo…  2003      277
##  6 31203-1 98138          27     1060 FALSE    https://… World M…  2021      709
##  7 40179-1 3024           14      900 FALSE    https://… Persona…  2016      277
##  8 40179-1 3024           71      900 FALSE    https://… Persona…  2016      277
##  9 40179-1 3024           72      900 FALSE    https://… Persona…  2016      277
## 10 40179-1 3024           15      900 FALSE    https://… Persona…  2016      277
## # ℹ 1,113,719 more rows
## # ℹ 4 more variables: num_parts <dbl>, img_url.y <chr>, name_theme <chr>,
## #   parent_id <dbl>
…
Before doing this comparison, you’ll want to aggregate the data to learn more about the pieces that are a part of each theme, as well as the colors of those pieces.

# filtered for each theme
batman <- inventory_sets_themes %>%
  filter(name_theme == "Batman")

star_wars <- inventory_sets_themes %>%
  filter(name_theme == "Star Wars")

# Count the part number and color id, weight by quantity
batman_parts <- batman %>%
    count(part_num, color_id, wt = quantity); batman_parts

## # A tibble: 3,455 × 3
##    part_num color_id     n
##    <chr>       <dbl> <dbl>
##  1 10100596     9999     1
##  2 10104735     9999     1
##  3 10104995     9999     1
##  4 10172         179     1
##  5 10172         297     1
##  6 10187         179     3
##  7 10187         297     3
##  8 10190           0     8
##  9 10201           4     3
## 10 10201          14     5
## # ℹ 3,445 more rows

star_wars_parts <- star_wars %>%
    count(part_num, color_id, wt = quantity); star_wars_parts

## # A tibble: 9,081 × 3
##    part_num color_id     n
##    <chr>       <dbl> <dbl>
##  1 01571        9999     1
##  2 01709        9999     1
##  3 01832        9999     1
##  4 10001722     9999     1
##  5 10001831     9999     1
##  6 10050        1063     4
##  7 10050        1103     1
##  8 10100101     9999     1
##  9 10100763     9999     1
## 10 10100764     9999     1
## # ℹ 9,071 more rows

Full joining Batman and Star Wars LEGO parts

Now that you’ve got separate tables for the pieces in the batman and star_wars themes, you’ll want to be able to combine them to see any similarities or differences between the two themes.

parts_joined <- batman_parts %>%
    # Combine the star_wars_parts table 
    full_join(star_wars_parts, by = c("part_num", "color_id"), 
              suffix = c("_batman", "_star_wars")) %>%
    # Replace NAs with 0s in the n_batman and n_star_wars columns 
    replace_na(list(n_batman = 0,
                    n_star_wars = 0))
parts_joined

## # A tibble: 9,964 × 4
##    part_num color_id n_batman n_star_wars
##    <chr>       <dbl>    <dbl>       <dbl>
##  1 10100596     9999        1           0
##  2 10104735     9999        1           0
##  3 10104995     9999        1           0
##  4 10172         179        1           0
##  5 10172         297        1           0
##  6 10187         179        3           0
##  7 10187         297        3           3
##  8 10190           0        8           3
##  9 10201           4        3           7
## 10 10201          14        5           2
## # ℹ 9,954 more rows

Comparing Batman and Star Wars LEGO parts

However, we have more information about each of these parts that we can gain by combining this table with some of the information we have in other tables.

parts_joined %>%
  # Sort the number of star wars pieces in descending order 
  arrange(desc(n_star_wars)) %>%
  # Join the colors table to the parts_joined table
  inner_join(colors, by = c("color_id" = "id")) %>%
  # Join the parts table to the previous join 
  inner_join(parts, by = "part_num", suffix = c("_color", "_part"))

## # A tibble: 9,964 × 10
##    part_num color_id n_batman n_star_wars name_color    rgb   is_trans name_part
##    <chr>       <dbl>    <dbl>       <dbl> <chr>         <chr> <lgl>    <chr>    
##  1 2780            0      377        5200 Black         0513… FALSE    Technic …
##  2 4274            1      166        2052 Blue          0055… FALSE    Technic …
##  3 3023           71      101        1923 Light Bluish… A0A5… FALSE    Plate 1 …
##  4 3023           72      170        1724 Dark Bluish … 6C6E… FALSE    Plate 1 …
##  5 3023            0      240        1457 Black         0513… FALSE    Plate 1 …
##  6 43093           1       95        1394 Blue          0055… FALSE    Technic …
##  7 6141           36       86        1246 Trans-Red     C91A… TRUE     Plate Ro…
##  8 2412b          72       83        1245 Dark Bluish … 6C6E… FALSE    Tile Spe…
##  9 6141           72       94        1178 Dark Bluish … 6C6E… FALSE    Plate Ro…
## 10 6558            1       33        1133 Blue          0055… FALSE    Technic …
## # ℹ 9,954 more rows
## # ℹ 2 more variables: part_cat_id <dbl>, part_material <chr>
…
# Two sets
batmobile <- inventory_parts_joined %>%
  filter(set_num == "7784-1") %>%
  select(-set_num)

batwing <- inventory_parts_joined %>%
  filter(set_num == "70916-1") %>%
  select(-set_num)

# Filter the batwing set for parts that are also in the batmobile set
batwing %>%
  semi_join(batmobile, by = "part_num")

## # A tibble: 142 × 5
##    part_num color_id quantity is_spare img_url                                  
##    <chr>       <dbl>    <dbl> <lgl>    <chr>                                    
##  1 3023            0       22 FALSE    https://cdn.rebrickable.com/media/parts/…
##  2 3024            0       22 FALSE    https://cdn.rebrickable.com/media/parts/…
##  3 3623            0       20 FALSE    https://cdn.rebrickable.com/media/parts/…
##  4 2780            0       17 FALSE    https://cdn.rebrickable.com/media/parts/…
##  5 3666            0       16 FALSE    https://cdn.rebrickable.com/media/parts/…
##  6 3710            0       14 FALSE    https://cdn.rebrickable.com/media/parts/…
##  7 6141            4       12 FALSE    https://cdn.rebrickable.com/media/parts/…
##  8 2412b          71       10 FALSE    https://cdn.rebrickable.com/media/parts/…
##  9 6141           72       10 FALSE    https://cdn.rebrickable.com/media/parts/…
## 10 6558            1        9 FALSE    https://cdn.rebrickable.com/media/parts/…
## # ℹ 132 more rows
…
