Chapter 16 Sampling in R | Data Scientist with R
…
Let’s take another look at the sampling distribution of dice rolls. This time, we’ll look at five eight-sided dice.

# Expand a grid representing 5 8-sided dice
dice <- expand_grid(
    die1 = 1:8,
    die2 = 1:8,
    die3 = 1:8,
    die4 = 1:8,
    die5 = 1:8
)

# See the result
dice

## # A tibble: 32,768 × 5
##     die1  die2  die3  die4  die5
##    <int> <int> <int> <int> <int>
##  1     1     1     1     1     1
##  2     1     1     1     1     2
##  3     1     1     1     1     3
##  4     1     1     1     1     4
##  5     1     1     1     1     5
##  6     1     1     1     1     6
##  7     1     1     1     1     7
##  8     1     1     1     1     8
##  9     1     1     1     2     1
## 10     1     1     1     2     2
## # ℹ 32,758 more rows

Add a column, mean_roll, to dice, that contains the mean of the five rolls.

dice <- dice %>% 
  # Add a column of mean rolls
  mutate(mean_roll = rowSums(.)/ncol(.))

dice

## # A tibble: 32,768 × 6
##     die1  die2  die3  die4  die5 mean_roll
##    <int> <int> <int> <int> <int>     <dbl>
##  1     1     1     1     1     1       1  
##  2     1     1     1     1     2       1.2
##  3     1     1     1     1     3       1.4
##  4     1     1     1     1     4       1.6
##  5     1     1     1     1     5       1.8
##  6     1     1     1     1     6       2  
##  7     1     1     1     1     7       2.2
##  8     1     1     1     1     8       2.4
##  9     1     1     1     2     1       1.2
## 10     1     1     1     2     2       1.4
## # ℹ 32,758 more rows
…
# See the result
str(sample_means_1000)

##  num [1:1000] 5.2 3.2 5.8 4.6 5.8 4.2 3.4 5 5.2 3.6 ...

# Wrap sample_means_1000 in the sample_mean column of a tibble
sample_means <- tibble(sample_mean = sample_means_1000)

# See the result
sample_means

## # A tibble: 1,000 × 1
##    sample_mean
##          <dbl>
##  1         5.2
##  2         3.2
##  3         5.8
##  4         4.6
##  5         5.8
##  6         4.2
##  7         3.4
##  8         5  
##  9         5.2
## 10         3.6
## # ℹ 990 more rows
…
# sample size = 5
sampling_distribution_5 <- sampling_distribution_fun(5)
sampling_distribution_5

## # A tibble: 1,000 × 1
##    mean_attrition
##             <dbl>
##  1            0.4
##  2            0.4
##  3            0  
##  4            0  
##  5            0  
##  6            0.4
##  7            0.2
##  8            0  
##  9            0  
## 10            0.4
## # ℹ 990 more rows

# sample size = 50
sampling_distribution_50 <- sampling_distribution_fun(50)
sampling_distribution_50

## # A tibble: 1,000 × 1
##    mean_attrition
##             <dbl>
##  1           0.18
##  2           0.12
##  3           0.1 
##  4           0.26
##  5           0.22
##  6           0.14
##  7           0.2 
##  8           0.06
##  9           0.06
## 10           0.08
## # ℹ 990 more rows

sampling_distribution_500 <- sampling_distribution_fun(500)
sampling_distribution_500

## # A tibble: 1,000 × 1
##    mean_attrition
##             <dbl>
##  1          0.172
##  2          0.166
##  3          0.17 
##  4          0.18 
##  5          0.162
##  6          0.16 
##  7          0.164
##  8          0.154
##  9          0.154
## 10          0.15 
## # ℹ 990 more rows
…
# See the result
str(mean_popularity_2000_boot)

##  num [1:2000] 55.4 54.8 54.1 54.2 54.3 ...

16.4.2.2 Compare sampling and bootstrap means

# create tibble to compare
sampling_distribution <- tibble(sample_mean = mean_popularity_2000_samp)
bootstrap_distribution <- tibble(resample_mean = mean_popularity_2000_boot)

sampling_distribution

## # A tibble: 2,000 × 1
##    sample_mean
##          <dbl>
##  1        54.1
##  2        54.9
##  3        54.4
##  4        54.7
##  5        54.1
##  6        54.6
##  7        54.4
##  8        54.4
##  9        54.9
## 10        54.2
## # ℹ 1,990 more rows

bootstrap_distribution

## # A tibble: 2,000 × 1
##    resample_mean
##            <dbl>
##  1          55.4
##  2          54.8
##  3          54.1
##  4          54.2
##  5          54.3
##  6          54.8
##  7          55.0
##  8          54.3
##  9          54.8
## 10          54.8
## # ℹ 1,990 more rows
…
