Chapter 20 Supervised Learning: Regression | Data Scientist with R
…
Use tidyr’s gather() which takes multiple columns and collapses them into key-value pairs.

alcohol %>% 
  gather(key = modeltype, value = pred, pred_add, pred_interaction)

## # A tibble: 64 × 7
##    Subject Metabol Gastric Sex    Alcohol       modeltype   pred
##      <dbl>   <dbl>   <dbl> <chr>  <chr>         <chr>      <dbl>
##  1       1     0.6     1   Female Alcoholic     pred_add  -0.209
##  2       2     0.6     1.6 Female Alcoholic     pred_add   1.46 
##  3       3     1.5     1.5 Female Alcoholic     pred_add   1.26 
##  4       4     0.4     2.2 Female Non-alcoholic pred_add   2.62 
##  5       5     0.1     1.1 Female Non-alcoholic pred_add   0.224
##  6       6     0.2     1.2 Female Non-alcoholic pred_add   0.682
##  7       7     0.3     0.9 Female Non-alcoholic pred_add  -0.396
##  8       8     0.3     0.8 Female Non-alcoholic pred_add  -0.582
##  9       9     0.4     1.5 Female Non-alcoholic pred_add   1.04 
## 10      10     1       0.9 Female Non-alcoholic pred_add  -0.396
## # ℹ 54 more rows
…
