Chapter 4 Data Manipulation | Data Scientist with R
…
counties %>%
  # Select the five columns 
  select(state, county, population, men, women) %>%
  # Add the proportion_men variable
  mutate(proportion_men = men / population) %>%
  # Filter for population of at least 10,000
  filter(population >= 10000, state == "California") %>%
  # Arrange proportion of men in descending order 
  arrange(desc(proportion_men))

## # A tibble: 55 × 6
##    state      county          population    men  women proportion_men
##    <chr>      <chr>                <dbl>  <dbl>  <dbl>          <dbl>
##  1 California "\"Lassen\""         32645  21800  10800          0.668
##  2 California "\"Kings\""         150998  84000  67000          0.556
##  3 California "\"Del Norte\""      27788  15400  12400          0.554
##  4 California "\"Amador\""         36995  20000  17000          0.541
##  5 California "\"Tuolumne\""       54079  28200  25900          0.521
##  6 California "\"Colusa\""         21396  11100  10300          0.519
##  7 California "\"Mono\""           14146   7310   6840          0.517
##  8 California "\"Trinity\""        13373   6880   6500          0.514
##  9 California "\"Kern\""          865736 445000 421000          0.514
## 10 California "\"Imperial\""      178206  91200  87000          0.512
## # ℹ 45 more rows
…
Add weight:

count(var1, wt = var2, sort = TRUE)

counties_selected <- counties %>%
    select(county, region, state, population, citizens)

# Find number of counties per state, weighted by citizens, sorted in descending order
counties_selected %>%
    count(state, wt = citizens, sort = TRUE)

## # A tibble: 50 × 2
##    state             n
##    <chr>         <dbl>
##  1 California 24280349
##  2 Texas      16864864
##  3 Florida    13933052
##  4 New York   13531404
##  5 Pennsylvan  9710416
##  6 Illinois    8979999
##  7 Ohio        8709050
##  8 Michigan    7380136
##  9 North Caro  7107998
## 10 Georgia     6978660
## # ℹ 40 more rows

Mutating and counting:

“What are the US states where the most people walk to work?”

counties_selected <- counties %>%
    select(county, region, state, population, walk)

counties_selected %>%
  # Add population_walk containing the total number of people who walk to work 
  mutate(population_walk = walk * population / 100) %>%
  # Count weighted by the new column, sort in descending order
  count(state, wt = population_walk, sort = TRUE)

## # A tibble: 50 × 2
##    state             n
##    <chr>         <dbl>
##  1 New York   1237938.
##  2 California 1017964.
##  3 Pennsylvan  505397.
##  4 Texas       430783.
##  5 Illinois    400346.
##  6 Massachuse  316765.
##  7 Florida     284723.
##  8 New Jersey  273047.
##  9 Ohio        266911.
## 10 Washington  239764.
## # ℹ 40 more rows
…
Summarize both population and land area by state, with the purpose of finding the density (in people per square miles).

counties %>%
    select(state, county, population, land_area) %>%
    # Group by state 
    group_by(state) %>%
    # Find the total area and population
    summarize(total_area = sum(land_area),
              total_population = sum(population)) %>%
    # Add a density column
    mutate(density = total_population / total_area) %>%
    # Sort by density in descending order
    arrange(desc(density))

## # A tibble: 50 × 4
##    state      total_area total_population density
##    <chr>           <dbl>            <dbl>   <dbl>
##  1 New Jersey      7356.          8904413   1210.
##  2 Rhode Isla      1034.          1053661   1019.
##  3 Massachuse      7800.          6705586    860.
##  4 Connecticu      4843           3593222    742.
##  5 Maryland        9707.          5930538    611.
##  6 Delaware        1948            926454    476.
##  7 New York       47127.         19673174    417.
##  8 Florida        53627          19645772    366.
##  9 Pennsylvan     44740          12779559    286.
## 10 Ohio           40855          11575977    283.
## # ℹ 40 more rows
…
Select a range of columns.

select(var1, var3:var6)

# For example
select(state, county, drive:work_at_home)

counties %>%
  # Select state, county, population, and industry-related columns
  select(state, county, population, professional:production) %>%
  # Arrange service in descending order 
  arrange(desc(service))

## # A tibble: 3,138 × 8
##    state   county population professional service office construction production
##    <chr>   <chr>       <dbl>        <dbl>   <dbl>  <dbl>        <dbl>      <dbl>
##  1 Missis… "i   …      10477         23.9    36.6   21.5          3.5       14.5
##  2 Texas   "\"Ki…       3577         30      36.5   11.6         20.5        1.3
##  3 Texas   "\"Ke…        565         24.9    34.1   20.5         20.5        0  
##  4 New Yo… "\"Br…    1428357         24.3    33.3   24.2          7.1       11  
##  5 Texas   "\"Br…       7221         19.6    32.4   25.3         11.1       11.5
##  6 Colora… "\"Fr…      46809         26.6    32.2   22.8         10.7        7.6
##  7 Texas   "\"Cu…       2296         20.1    32.2   24.2         15.7        7.8
##  8 Califo… "\"De…      27788         33.9    31.5   18.8          8.9        6.8
##  9 Minnes… "\"Ma…       5496         26.8    31.5   18.7         13.1        9.9
## 10 Virgin… "\"La…      11129         30.3    31.2   22.8          8.1        7.6
## # ℹ 3,128 more rows
…
Select

When select variables, change variables’ name at the same time.

select(var1, var2, var_newname = var_oldname)

# For example
counties %>%
    select(state, county, population, unemployment_rate = unemployment)

counties %>%
    # Select state, county, and poverty as poverty_rate
    select(state, county, poverty_rate = poverty)

## # A tibble: 3,138 × 3
##    state   county         poverty_rate
##    <chr>   <chr>                 <dbl>
##  1 Alabama "\"Autauga\""          12.9
##  2 Alabama "\"Baldwin\""          13.4
##  3 Alabama "\"Barbour\""          26.7
##  4 Alabama "\"Bibb\""             16.8
##  5 Alabama "\"Blount\""           16.7
##  6 Alabama "\"Bullock\""          24.6
##  7 Alabama "\"Butler\""           25.4
##  8 Alabama "\"Calhoun\""          20.5
##  9 Alabama "\"Chambers\""         21.6
## 10 Alabama "\"Cherokee\""         19.2
## # ℹ 3,128 more rows
…
rename() is often useful for changing the name of a column that comes out of another verb.

rename(var_newname = var_oldname)

# For example
counties %>%
    select(state, county, population, unemployment) %>%
    rename(unemployment_rate = unemployment)

counties %>%
    # Count the number of counties in each state
    count(state)

## # A tibble: 50 × 2
##    state          n
##    <chr>      <int>
##  1 Alabama       67
##  2 Alaska        28
##  3 Arizona       15
##  4 Arkansas      75
##  5 California    58
##  6 Colorado      64
##  7 Connecticu     8
##  8 Delaware       3
##  9 Florida       67
## 10 Georgia      159
## # ℹ 40 more rows

counties %>%
    # Count the number of counties in each state
    count(state) %>%
    # Rename the n column to num_counties
    rename(num_counties = n)

## # A tibble: 50 × 2
##    state      num_counties
##    <chr>             <int>
##  1 Alabama              67
##  2 Alaska               28
##  3 Arizona              15
##  4 Arkansas             75
##  5 California           58
##  6 Colorado             64
##  7 Connecticu            8
##  8 Delaware              3
##  9 Florida              67
## 10 Georgia             159
## # ℹ 40 more rows
…
transmute(var1, var2, var_new = var_old*do caculate)

#For example
counties %>%
    transmute(state, county, fraction_men = men / population)

counties %>%
    # Keep the state, county, and populations columns, and add a density column
    transmute(state, county, population, density = population/land_area) %>%
    # Filter for counties with a population greater than one million 
    filter(population > 1000000) %>%
    # Sort density in ascending order 
    arrange(density)

## # A tibble: 41 × 4
##    state      county               population density
##    <chr>      <chr>                     <dbl>   <dbl>
##  1 California "\"San Bernardino\""    2094769    104.
##  2 Nevada     "\"Clark\""             2035572    258.
##  3 California "\"Riverside\""         2298032    319.
##  4 Arizona    "\"Maricopa\""          4018143    437.
##  5 Florida    "\"Palm Beach\""        1378806    700.
##  6 California "\"San Diego\""         3223096    766.
##  7 Washington "\"King\""              2045756    967.
##  8 Texas      "\"Travis\""            1121645   1133.
##  9 Florida    "\"Hillsborough\""      1302884   1277.
## 10 Florida    "\"Orange\""            1229039   1361.
## # ℹ 31 more rows
…
# Keep only the state, county, and employment_rate columns
counties %>%
  transmute(state, county, employment_rate = employed / population)

4.4 Case Study: The babynames Dataset

4.4.1 Load dataset

library(babynames)

## Warning: package 'babynames' was built under R version 4.3.1

babynames

## # A tibble: 1,924,665 × 5
##     year sex   name          n   prop
##    <dbl> <chr> <chr>     <int>  <dbl>
##  1  1880 F     Mary       7065 0.0724
##  2  1880 F     Anna       2604 0.0267
##  3  1880 F     Emma       2003 0.0205
##  4  1880 F     Elizabeth  1939 0.0199
##  5  1880 F     Minnie     1746 0.0179
##  6  1880 F     Margaret   1578 0.0162
##  7  1880 F     Ida        1472 0.0151
##  8  1880 F     Alice      1414 0.0145
##  9  1880 F     Bertha     1320 0.0135
## 10  1880 F     Sarah      1288 0.0132
## # ℹ 1,924,655 more rows

4.4.2 Exploring data

Filtering and arranging for one year

babynames %>%
    # Filter for the year 1990
    filter(year == 1990) %>%
    # Sort the number column in descending order 
    arrange(desc(n))

## # A tibble: 24,719 × 5
##     year sex   name            n   prop
##    <dbl> <chr> <chr>       <int>  <dbl>
##  1  1990 M     Michael     65282 0.0303
##  2  1990 M     Christopher 52332 0.0243
##  3  1990 F     Jessica     46475 0.0226
##  4  1990 F     Ashley      45558 0.0222
##  5  1990 M     Matthew     44800 0.0208
##  6  1990 M     Joshua      43216 0.0201
##  7  1990 F     Brittany    36538 0.0178
##  8  1990 F     Amanda      34408 0.0168
##  9  1990 M     Daniel      33815 0.0157
## 10  1990 M     David       33742 0.0157
## # ℹ 24,709 more rows

Finding the most popular names each year

babynames %>%
    # Find the most common name in each year
    group_by(year) %>%
    slice_max(n, n = 1)

## # A tibble: 138 × 5
## # Groups:   year [138]
##     year sex   name      n   prop
##    <dbl> <chr> <chr> <int>  <dbl>
##  1  1880 M     John   9655 0.0815
##  2  1881 M     John   8769 0.0810
##  3  1882 M     John   9557 0.0783
##  4  1883 M     John   8894 0.0791
##  5  1884 M     John   9388 0.0765
##  6  1885 F     Mary   9128 0.0643
##  7  1886 F     Mary   9889 0.0643
##  8  1887 F     Mary   9888 0.0636
##  9  1888 F     Mary  11754 0.0620
## 10  1889 F     Mary  11648 0.0616
## # ℹ 128 more rows
…
Finding the year each name is most common

# Calculate the fraction of people born each year with the same name
babynames %>%
  group_by(year) %>%
  mutate(year_total = sum(n)) %>%
  ungroup() %>%
  mutate(fraction = n / year_total) %>%
  # Find the year each name is most common
  group_by(name) %>%
  slice_max(fraction, n = 1)

## # A tibble: 97,351 × 7
## # Groups:   name [97,310]
##     year sex   name          n       prop year_total   fraction
##    <dbl> <chr> <chr>     <int>      <dbl>      <int>      <dbl>
##  1  2014 M     Aaban        16 0.00000783    3696311 0.00000433
##  2  2014 F     Aabha         9 0.00000461    3696311 0.00000243
##  3  2016 M     Aabid         5 0.00000248    3652968 0.00000137
##  4  2016 M     Aabir         5 0.00000248    3652968 0.00000137
##  5  2016 F     Aabriella    11 0.0000057     3652968 0.00000301
##  6  2015 F     Aada          5 0.00000257    3688687 0.00000136
##  7  2015 M     Aadam        22 0.0000108     3688687 0.00000596
##  8  2009 M     Aadan        23 0.0000108     3815638 0.00000603
##  9  2014 M     Aadarsh      18 0.0000088     3696311 0.00000487
## 10  2009 M     Aaden      1267 0.000598      3815638 0.000332  
## # ℹ 97,341 more rows
Adding the total and maximum for each name

You’ll divide each name by the maximum for that name. This means that every name will peak at 1.

babynames %>%
  # Add columns name_total and name_max for each name
  group_by(name) %>%
  mutate(name_total = sum(n),
         name_max = max(n)) %>%
  # Ungroup the table 
  ungroup() %>%
  # Add the fraction_max column containing the number by the name maximum 
  mutate(fraction_max = n / name_max)

## # A tibble: 1,924,665 × 8
##     year sex   name          n   prop name_total name_max fraction_max
##    <dbl> <chr> <chr>     <int>  <dbl>      <int>    <int>        <dbl>
##  1  1880 F     Mary       7065 0.0724    4138360    73982       0.0955
##  2  1880 F     Anna       2604 0.0267     891245    15666       0.166 
##  3  1880 F     Emma       2003 0.0205     655629    22704       0.0882
##  4  1880 F     Elizabeth  1939 0.0199    1634860    20744       0.0935
##  5  1880 F     Minnie     1746 0.0179     159562     3274       0.533 
##  6  1880 F     Margaret   1578 0.0162    1250392    28466       0.0554
##  7  1880 F     Ida        1472 0.0151     186955     4450       0.331 
##  8  1880 F     Alice      1414 0.0145     562006    11956       0.118 
##  9  1880 F     Bertha     1320 0.0135     208550     5051       0.261 
## 10  1880 F     Sarah      1288 0.0132    1077215    28484       0.0452
## # ℹ 1,924,655 more rows
…
babynames_fraction <- babynames %>%
    group_by(year) %>%
    mutate(year_total = sum(n)) %>%
    ungroup() %>%
    mutate(fraction = n / year_total)

babynames_fraction %>%
    # Arrange the data in order of name, then year 
    arrange(name, year) %>%
    # Group the data by name
    group_by(name) %>%
    # Add a ratio column that contains the ratio of fraction between each year 
    mutate(ratio = fraction / lag(fraction))

## # A tibble: 1,924,665 × 8
## # Groups:   name [97,310]
##     year sex   name      n       prop year_total   fraction  ratio
##    <dbl> <chr> <chr> <int>      <dbl>      <int>      <dbl>  <dbl>
##  1  2007 M     Aaban     5 0.00000226    3994007 0.00000125 NA    
##  2  2009 M     Aaban     6 0.00000283    3815638 0.00000157  1.26 
##  3  2010 M     Aaban     9 0.00000439    3690700 0.00000244  1.55 
##  4  2011 M     Aaban    11 0.00000542    3651914 0.00000301  1.24 
##  5  2012 M     Aaban    11 0.00000543    3650462 0.00000301  1.00 
##  6  2013 M     Aaban    14 0.00000694    3637310 0.00000385  1.28 
##  7  2014 M     Aaban    16 0.00000783    3696311 0.00000433  1.12 
##  8  2015 M     Aaban    15 0.00000736    3688687 0.00000407  0.939
##  9  2016 M     Aaban     9 0.00000446    3652968 0.00000246  0.606
## 10  2017 M     Aaban    11 0.0000056     3546301 0.00000310  1.26 
## # ℹ 1,924,655 more rows
…
babynames_ratios_filtered <- babynames_fraction %>%
    arrange(name, year) %>%
    group_by(name) %>%
    mutate(ratio = fraction / lag(fraction)) %>%
    filter(fraction >= 0.00001)

babynames_ratios_filtered %>%
    # Extract the largest ratio from each name 
    slice_max(ratio, n = 1) %>%
    # Sort the ratio column in descending order 
    arrange(desc(ratio)) %>%
    # Filter for fractions greater than or equal to 0.001
    filter(fraction >= 0.001)

## # A tibble: 529 × 8
## # Groups:   name [529]
##     year sex   name          n    prop year_total fraction ratio
##    <dbl> <chr> <chr>     <int>   <dbl>      <int>    <dbl> <dbl>
##  1  2010 F     Sophia    20639 0.0105     3690700  0.00559 2371.
##  2  2001 F     Olivia    13978 0.00706    3741451  0.00374 2352.
##  3  2002 F     Isabella  12166 0.00616    3736042  0.00326 2031.
##  4  2014 M     Joseph    12106 0.00592    3696311  0.00328 2018.
##  5  2016 F     Emma      19471 0.0101     3652968  0.00533 1966.
##  6  2016 F     Elizabeth  9542 0.00495    3652968  0.00261 1927.
##  7  2013 M     Luke       9568 0.00474    3637310  0.00263 1914.
##  8  2011 M     Samuel    11340 0.00559    3651914  0.00311 1890 
##  9  2015 F     Evelyn     9358 0.00481    3688687  0.00254 1875.
## 10  2010 M     Isaac      9354 0.00456    3690700  0.00253 1871.
## # ℹ 519 more rows
