Chapter 18 Experimental Design | Data Scientist with R
…
# Mean, var, and median of Math score by both
nyc_scores %>%
    group_by(Borough, Teacher_Education_Level) %>% 
    summarise(mean = mean(Average_Score_SAT_Math, na.rm = TRUE),
              var = var(Average_Score_SAT_Math, na.rm = TRUE),
              median = median(Average_Score_SAT_Math, na.rm = TRUE))

## `summarise()` has grouped output by
## 'Borough'. You can override using the
## `.groups` argument.

## # A tibble: 25 × 5
## # Groups:   Borough [5]
##    Borough  Teacher_Education_Level  mean   var median
##    <chr>    <chr>                   <dbl> <dbl>  <dbl>
##  1 Bronx    BA                       413. 1742.   407 
##  2 Bronx    College Student          400. 4984.   390 
##  3 Bronx    Grad Student             390.  684.   388.
##  4 Bronx    MA                       411. 3591.   400 
##  5 Bronx    PhD                      398.  297.   398 
##  6 Brooklyn BA                       406. 3589.   394.
##  7 Brooklyn College Student          430. 5370.   398.
##  8 Brooklyn Grad Student             422. 2754.   391 
##  9 Brooklyn MA                       402. 2470.   394.
## 10 Brooklyn PhD                      439. 3365.   450.
## # ℹ 15 more rows
…
## 
## Attaching package: 'naniar'

## The following object is masked from 'package:simputation':
## 
##     impute_median

## The following object is masked from 'package:assertive.base':
## 
##     is_na

# Examine missingness with miss_var_summary()
nyc_scores %>% miss_var_summary()

## # A tibble: 23 × 3
##    variable                  n_miss pct_miss
##    <chr>                      <int>    <dbl>
##  1 Average_Score_SAT_Math        60   13.8  
##  2 Average_Score_SAT_Reading     60   13.8  
##  3 Average_Score_SAT_Writing     60   13.8  
##  4 Percent_Tested                49   11.3  
##  5 Student_Enrollment             7    1.61 
##  6 Percent_White                  7    1.61 
##  7 Percent_Black                  7    1.61 
##  8 Percent_Hispanic               7    1.61 
##  9 Percent_Asian                  7    1.61 
## 10 Start_Time                     4    0.920
## # ℹ 13 more rows
…
