Chapter 13 Exploratory Data Analysis in R | Data Scientist with R
…
removing these levels from the factor variable with droplevels().

(This is because the droplevels() would keep levels that have just 1 or 2 counts; it only drops levels that don’t exist in a dataset.)

Find out which level of align has the fewest total entries. Then filter out all rows of comics with that level, then drop the unused level with droplevels().

# Remove align level
comics_filtered <- comics %>%
  filter(align != "Reformed Criminals") %>%
  droplevels()

# See the result
comics_filtered

## # A tibble: 19,856 × 11
##    name      id    align eye   hair  gender gsm   alive appearances first_appear
##    <fct>     <fct> <fct> <fct> <fct> <fct>  <fct> <fct>       <int> <fct>       
##  1 "Spider-… Secr… Good  Haze… Brow… Male   <NA>  Livi…        4043 Aug-62      
##  2 "Captain… Publ… Good  Blue… Whit… Male   <NA>  Livi…        3360 Mar-41      
##  3 "Wolveri… Publ… Neut… Blue… Blac… Male   <NA>  Livi…        3061 Oct-74      
##  4 "Iron Ma… Publ… Good  Blue… Blac… Male   <NA>  Livi…        2961 Mar-63      
##  5 "Thor (T… No D… Good  Blue… Blon… Male   <NA>  Livi…        2258 Nov-50      
##  6 "Benjami… Publ… Good  Blue… No H… Male   <NA>  Livi…        2255 Nov-61      
##  7 "Reed Ri… Publ… Good  Brow… Brow… Male   <NA>  Livi…        2072 Nov-61      
##  8 "Hulk (R… Publ… Good  Brow… Brow… Male   <NA>  Livi…        2017 May-62      
##  9 "Scott S… Publ… Neut… Brow… Brow… Male   <NA>  Livi…        1955 Sep-63      
## 10 "Jonatha… Publ… Good  Blue… Blon… Male   <NA>  Livi…        1934 Nov-61      
## # ℹ 19,846 more rows
## # ℹ 1 more variable: publisher <fct>
…
