Chapter 17 Hypothesis Testing | Data Scientist with R
…
# A bootstrap distribution of the proportion of late shipments
late_shipments_boot_distn <- replicate(
    n = 5000,
    expr = {
        late_shipments %>%
            slice_sample(prop = 1, replace = TRUE) %>%
            summarise(late_prop = mean(late == "Yes")) %>%
            pull(late_prop)
    }
) %>% 
    tibble(late_prop = .)

late_shipments_boot_distn

## # A tibble: 5,000 × 1
##    late_prop
##        <dbl>
##  1     0.072
##  2     0.072
##  3     0.062
##  4     0.075
##  5     0.046
##  6     0.068
##  7     0.062
##  8     0.058
##  9     0.071
## 10     0.061
## # ℹ 4,990 more rows
…
Simulation-based infer pipeline.

# Specify that we are interested in late proportions across freight_cost_groups, where "Yes" denotes success
specified <- late_shipments %>%
    specify(late ~ freight_cost_group, 
            success = "Yes")

# See the result
specified

## Response: late (factor)
## Explanatory: freight_cost_group (factor)
## # A tibble: 1,000 × 2
##    late  freight_cost_group
##    <fct> <fct>             
##  1 No    reasonable        
##  2 No    expensive         
##  3 No    expensive         
##  4 Yes   expensive         
##  5 No    reasonable        
##  6 No    reasonable        
##  7 No    expensive         
##  8 No    expensive         
##  9 No    expensive         
## 10 No    reasonable        
## # ℹ 990 more rows
# Extend the pipeline to declare a null hypothesis that the variables are independent
hypothesized <- late_shipments %>% 
  specify(
    late ~ freight_cost_group, 
    success = "Yes"
  ) %>% 
  hypothesize(null = "independence")

# See the result
hypothesized

## Response: late (factor)
## Explanatory: freight_cost_group (factor)
## Null Hypothesis: independence
## # A tibble: 1,000 × 2
##    late  freight_cost_group
##    <fct> <fct>             
##  1 No    reasonable        
##  2 No    expensive         
##  3 No    expensive         
##  4 Yes   expensive         
##  5 No    reasonable        
##  6 No    reasonable        
##  7 No    expensive         
##  8 No    expensive         
##  9 No    expensive         
## 10 No    reasonable        
## # ℹ 990 more rows
…
# See the result
generated

## Response: late (factor)
## Explanatory: freight_cost_group (factor)
## Null Hypothesis: independence
## # A tibble: 2,000,000 × 3
## # Groups:   replicate [2,000]
##    late  freight_cost_group replicate
##    <fct> <fct>                  <int>
##  1 No    reasonable                 1
##  2 No    expensive                  1
##  3 No    expensive                  1
##  4 No    expensive                  1
##  5 No    reasonable                 1
##  6 No    reasonable                 1
##  7 No    expensive                  1
##  8 No    expensive                  1
##  9 No    expensive                  1
## 10 No    reasonable                 1
## # ℹ 1,999,990 more rows
…
# See the result
null_distn

## Response: late (factor)
## Explanatory: freight_cost_group (factor)
## Null Hypothesis: independence
## # A tibble: 2,000 × 2
##    replicate      stat
##        <int>     <dbl>
##  1         1 -0.000995
##  2         2  0.0111  
##  3         3 -0.0211  
##  4         4 -0.0211  
##  5         5  0.0111  
##  6         6 -0.000995
##  7         7  0.0111  
##  8         8 -0.0211  
##  9         9 -0.0131  
## 10        10 -0.0614  
## # ℹ 1,990 more rows
…
# See the results
null_distn

## Response: weight_kilograms (numeric)
## Explanatory: late (factor)
## Null Hypothesis: independence
## # A tibble: 1,000 × 2
##    replicate    stat
##        <int>   <dbl>
##  1         1 -1727. 
##  2         2   552. 
##  3         3 -2694. 
##  4         4  -228. 
##  5         5  -713. 
##  6         6 -1881. 
##  7         7   -46.5
##  8         8  -770. 
##  9         9   253. 
## 10        10   539. 
## # ℹ 990 more rows
…
