Chapter 15 Intermediate Regression | Data Scientist with R
…
Make a grid (expand_grid()) of explanatory data, formed from combinations of the following variables.

# Make a grid of explanatory data
explanatory_data <- expand_grid(
  # Set n_convenience to zero to ten
  n_convenience = 0:10,
  # Set house_age_years to the unique values of that variable
  house_age_years = unique(taiwan_real_estate$house_age_years)
)

# See the result
explanatory_data

## # A tibble: 33 × 2
##    n_convenience house_age_years
##            <int> <fct>          
##  1             0 30 to 45       
##  2             0 15 to 30       
##  3             0 0 to 15        
##  4             1 30 to 45       
##  5             1 15 to 30       
##  6             1 0 to 15        
##  7             2 30 to 45       
##  8             2 15 to 30       
##  9             2 0 to 15        
## 10             3 30 to 45       
## # ℹ 23 more rows

# Add predictions to the data frame
prediction_data <- explanatory_data %>% 
  mutate(price_twd_msq = predict(mdl_price_vs_both, explanatory_data))

# See the result
prediction_data

## # A tibble: 33 × 3
##    n_convenience house_age_years price_twd_msq
##            <int> <fct>                   <dbl>
##  1             0 30 to 45                 7.51
##  2             0 15 to 30                 7.09
##  3             0 0 to 15                  9.41
##  4             1 30 to 45                 8.30
##  5             1 15 to 30                 7.88
##  6             1 0 to 15                 10.2 
##  7             2 30 to 45                 9.09
##  8             2 15 to 30                 8.67
##  9             2 0 to 15                 11.0 
## 10             3 30 to 45                 9.89
## # ℹ 23 more rows
…
    # Manually calculate the predictions
    price_twd_msq = intercept + slope * n_convenience
  )

# See the results
prediction_data

## # A tibble: 33 × 4
##    n_convenience house_age_years intercept price_twd_msq
##            <int> <fct>               <dbl>         <dbl>
##  1             0 30 to 45             7.51          7.51
##  2             0 15 to 30             7.09          7.09
##  3             0 0 to 15              9.41          9.41
##  4             1 30 to 45             7.51          8.30
##  5             1 15 to 30             7.09          7.88
##  6             1 0 to 15              9.41         10.2 
##  7             2 30 to 45             7.51          9.09
##  8             2 15 to 30             7.09          8.67
##  9             2 0 to 15              9.41         11.0 
## 10             3 30 to 45             7.51          9.89
## # ℹ 23 more rows
…
mdl_price_vs_both_inter <- lm(price_twd_msq ~ house_age_years + n_convenience:house_age_years + 0, taiwan_real_estate)

# Make a grid of explanatory data
explanatory_data <- expand_grid(
  # Set n_convenience to zero to ten
  n_convenience = 0:10,
  # Set house_age_years to the unique values of that variable
  house_age_years = unique(taiwan_real_estate$house_age_years)
)

# See the result
explanatory_data

## # A tibble: 33 × 2
##    n_convenience house_age_years
##            <int> <fct>          
##  1             0 30 to 45       
##  2             0 15 to 30       
##  3             0 0 to 15        
##  4             1 30 to 45       
##  5             1 15 to 30       
##  6             1 0 to 15        
##  7             2 30 to 45       
##  8             2 15 to 30       
##  9             2 0 to 15        
## 10             3 30 to 45       
## # ℹ 23 more rows

# Add predictions to the data frame
prediction_data <- explanatory_data %>%
  mutate(price_twd_msq = predict(mdl_price_vs_both_inter, explanatory_data))

# See the result
prediction_data

## # A tibble: 33 × 3
##    n_convenience house_age_years price_twd_msq
##            <int> <fct>                   <dbl>
##  1             0 30 to 45                 8.11
##  2             0 15 to 30                 6.87
##  3             0 0 to 15                  9.24
##  4             1 30 to 45                 8.78
##  5             1 15 to 30                 7.72
##  6             1 0 to 15                 10.1 
##  7             2 30 to 45                 9.45
##  8             2 15 to 30                 8.58
##  9             2 0 to 15                 10.9 
## 10             3 30 to 45                10.1 
## # ℹ 23 more rows
…
prediction_data <- explanatory_data %>% 
  mutate(
    # Consider the 3 cases to choose the price
    price_twd_msq = case_when(
      house_age_years == "0 to 15" ~ intercept_0_15 + slope_0_15 * n_convenience,
      house_age_years == "15 to 30" ~ intercept_15_30 + slope_15_30 * n_convenience,
      house_age_years == "30 to 45" ~ intercept_30_45 + slope_30_45 * n_convenience
    )  
  )

# See the result
prediction_data

## # A tibble: 33 × 3
##    n_convenience house_age_years price_twd_msq
##            <int> <fct>                   <dbl>
##  1             0 30 to 45                 8.11
##  2             0 15 to 30                 6.87
##  3             0 0 to 15                  9.24
##  4             1 30 to 45                 8.78
##  5             1 15 to 30                 7.72
##  6             1 0 to 15                 10.1 
##  7             2 30 to 45                 9.45
##  8             2 15 to 30                 8.58
##  9             2 0 to 15                 10.9 
## 10             3 30 to 45                10.1 
## # ℹ 23 more rows
…
# Create expanded grid of explanatory variables with no. of conv. stores and  dist. to nearest MRT
explanatory_data <- expand_grid(
    n_convenience = 0:10,
    dist_to_mrt_m = seq(0, 80, 10)^2
)

# Add predictions using mdl_price_vs_conv_dist and explanatory_data
prediction_data <- explanatory_data %>%
    mutate(price_twd_msq = predict(mdl_price_vs_conv_dist, explanatory_data))

# See the result
prediction_data

## # A tibble: 99 × 3
##    n_convenience dist_to_mrt_m price_twd_msq
##            <int>         <dbl>         <dbl>
##  1             0             0         15.1 
##  2             0           100         13.5 
##  3             0           400         12.0 
##  4             0           900         10.4 
##  5             0          1600          8.81
##  6             0          2500          7.24
##  7             0          3600          5.67
##  8             0          4900          4.09
##  9             0          6400          2.52
## 10             1             0         15.3 
## # ℹ 89 more rows
…
# Create expanded grid of explanatory variables with no. of conv. stores and  dist. to nearest MRT
explanatory_data <- expand_grid(
    n_convenience = 0:10,
    dist_to_mrt_m = seq(0, 80, 10)^2
)

# Add predictions using mdl_price_vs_conv_dist and explanatory_data
prediction_data <- explanatory_data %>%
    mutate(price_twd_msq = predict(mdl_price_vs_conv_dist, explanatory_data))

# See the result
prediction_data

## # A tibble: 99 × 3
##    n_convenience dist_to_mrt_m price_twd_msq
##            <int>         <dbl>         <dbl>
##  1             0             0         14.7 
##  2             0           100         13.3 
##  3             0           400         11.9 
##  4             0           900         10.5 
##  5             0          1600          9.09
##  6             0          2500          7.68
##  7             0          3600          6.26
##  8             0          4900          4.85
##  9             0          6400          3.44
## 10             1             0         15.2 
## # ℹ 89 more rows
…
# Make a grid of explanatory data
explanatory_data <- expand_grid(
  # Set dist_to_mrt_m a seq from 0 to 80 by 10s, squared
  dist_to_mrt_m = seq(0, 80, 10) ^ 2,
  # Set n_convenience to 0 to 10
  n_convenience = 0:10,
  # Set house_age_years to the unique values of that variable
  house_age_years = unique(taiwan_real_estate$house_age_years)
)

# See the result
explanatory_data

## # A tibble: 297 × 3
##    dist_to_mrt_m n_convenience house_age_years
##            <dbl>         <int> <fct>          
##  1             0             0 30 to 45       
##  2             0             0 15 to 30       
##  3             0             0 0 to 15        
##  4             0             1 30 to 45       
##  5             0             1 15 to 30       
##  6             0             1 0 to 15        
##  7             0             2 30 to 45       
##  8             0             2 15 to 30       
##  9             0             2 0 to 15        
## 10             0             3 30 to 45       
## # ℹ 287 more rows

# Add predictions to the data frame
prediction_data <- explanatory_data %>%
  mutate(price_twd_msq = predict(mdl_price_vs_all_3_way_inter, explanatory_data))

# See the result
prediction_data

## # A tibble: 297 × 4
##    dist_to_mrt_m n_convenience house_age_years price_twd_msq
##            <dbl>         <int> <fct>                   <dbl>
##  1             0             0 30 to 45                 12.1
##  2             0             0 15 to 30                 13.8
##  3             0             0 0 to 15                  16.0
##  4             0             1 30 to 45                 12.5
##  5             0             1 15 to 30                 14.2
##  6             0             1 0 to 15                  16.4
##  7             0             2 30 to 45                 13.0
##  8             0             2 15 to 30                 14.7
##  9             0             2 0 to 15                  16.8
## 10             0             3 30 to 45                 13.4
## # ℹ 287 more rows
…
The only thing to remember here is to set the prediction type to "response".

# Make a grid of explanatory data
explanatory_data <- expand_grid(
  # Set len. relationship to seq from -2 to 4 in steps of 0.1
  time_since_first_purchase = seq(-2, 4, 0.1),
  # Set recency to seq from -1 to 6 in steps of 0.1
  time_since_last_purchase = seq(-1, 6, 0.1)
)

# See the result
explanatory_data

## # A tibble: 4,331 × 2
##    time_since_first_purchase time_since_last_purchase
##                        <dbl>                    <dbl>
##  1                        -2                     -1  
##  2                        -2                     -0.9
##  3                        -2                     -0.8
##  4                        -2                     -0.7
##  5                        -2                     -0.6
##  6                        -2                     -0.5
##  7                        -2                     -0.4
##  8                        -2                     -0.3
##  9                        -2                     -0.2
## 10                        -2                     -0.1
## # ℹ 4,321 more rows

# Add a column of predictions using mdl_churn_vs_both_inter and explanatory_data with type response
prediction_data <- explanatory_data %>%
  mutate(has_churned = predict(mdl_churn_vs_both_inter, 
                               explanatory_data, 
                               type = "response"))

# See the result
prediction_data

## # A tibble: 4,331 × 3
##    time_since_first_purchase time_since_last_purchase has_churned
##                        <dbl>                    <dbl>       <dbl>
##  1                        -2                     -1         0.716
##  2                        -2                     -0.9       0.720
##  3                        -2                     -0.8       0.724
##  4                        -2                     -0.7       0.728
##  5                        -2                     -0.6       0.732
##  6                        -2                     -0.5       0.736
##  7                        -2                     -0.4       0.740
##  8                        -2                     -0.3       0.744
##  9                        -2                     -0.2       0.747
## 10                        -2                     -0.1       0.751
## # ℹ 4,321 more rows
…
