Chapter 14 Introduction to Regression | Data Scientist with R
…
library(broom)

# Get the coefficient-level elements of the model
tidy(mdl_price_vs_conv)

## # A tibble: 2 × 5
##   term          estimate std.error statistic   p.value
##   <chr>            <dbl>     <dbl>     <dbl>     <dbl>
## 1 (Intercept)      8.22     0.285       28.9 5.81e-101
## 2 n_convenience    0.798    0.0565      14.1 3.41e- 37

# Get the observation-level elements of the model
augment(mdl_price_vs_conv)

## # A tibble: 414 × 8
##    price_twd_msq n_convenience .fitted .resid    .hat .sigma  .cooksd .std.resid
##            <dbl>         <dbl>   <dbl>  <dbl>   <dbl>  <dbl>    <dbl>      <dbl>
##  1         11.5             10   16.2  -4.74  0.0121    3.38  1.22e-2     -1.41 
##  2         12.8              9   15.4  -2.64  0.00913   3.39  2.83e-3     -0.783
##  3         14.3              5   12.2   2.10  0.00264   3.39  5.10e-4      0.621
##  4         16.6              5   12.2   4.37  0.00264   3.38  2.21e-3      1.29 
##  5         13.0              5   12.2   0.826 0.00264   3.39  7.92e-5      0.244
##  6          9.71             3   10.6  -0.906 0.00275   3.39  9.91e-5     -0.268
##  7         12.2              7   13.8  -1.62  0.00477   3.39  5.50e-4     -0.479
##  8         14.1              6   13.0   1.12  0.00343   3.39  1.88e-4      0.331
##  9          5.69             1    9.02 -3.33  0.00509   3.38  2.49e-3     -0.988
## 10          6.69             3   10.6  -3.93  0.00275   3.38  1.87e-3     -1.16 
## # ℹ 404 more rows
…
return_2018
A measure of investment performance in 2018.

return_2019
A measure of investment performance in 2019.

A positive number for the return means the investment increased in value; negative means it lost value.

A naive prediction might be that the investment performance stays the same from year to year, lying on the “y equals x” line.

sp500_yearly_returns <- read_tsv("data/sp500_yearly_returns.txt")
sp500_yearly_returns

## # A tibble: 384 × 3
##    symbol return_2018 return_2019
##    <chr>        <dbl>       <dbl>
##  1 MSFT        0.208        0.576
##  2 AAPL       -0.0539       0.890
##  3 AMZN        0.284        0.230
##  4 FB         -0.257        0.566
##  5 GOOG       -0.0103       0.291
##  6 JNJ        -0.0513       0.162
##  7 V           0.165        0.433
##  8 JPM        -0.0662       0.473
##  9 INTC        0.0423       0.307
## 10 MA          0.253        0.592
## # ℹ 374 more rows
…
Predict the probability of churning. Remember to set the prediction type.

# Make a data frame of predicted probabilities
prediction_data <- explanatory_data %>% 
  mutate(has_churned = predict(mdl_churn_vs_relationship, 
                               explanatory_data, 
                               type = "response"))

# See the result
prediction_data

## # A tibble: 23 × 2
##    time_since_first_purchase has_churned
##                        <dbl>       <dbl>
##  1                     -1.5        0.626
##  2                     -1.25       0.605
##  3                     -1          0.584
##  4                     -0.75       0.562
##  5                     -0.5        0.540
##  6                     -0.25       0.518
##  7                      0          0.496
##  8                      0.25       0.474
##  9                      0.5        0.452
## 10                      0.75       0.430
## # ℹ 13 more rows
…
# Update the data frame
prediction_data <- explanatory_data %>% 
  mutate(   
    has_churned = predict(mdl_churn_vs_relationship, 
                          explanatory_data, 
                          type = "response"),
    # Add the most likely churn outcome, 四捨五入&無小數點
    most_likely_outcome = round(has_churned, digits = 0)
  )

# See the result
prediction_data

## # A tibble: 23 × 3
##    time_since_first_purchase has_churned most_likely_outcome
##                        <dbl>       <dbl>               <dbl>
##  1                     -1.5        0.626                   1
##  2                     -1.25       0.605                   1
##  3                     -1          0.584                   1
##  4                     -0.75       0.562                   1
##  5                     -0.5        0.540                   1
##  6                     -0.25       0.518                   1
##  7                      0          0.496                   0
##  8                      0.25       0.474                   0
##  9                      0.5        0.452                   0
## 10                      0.75       0.430                   0
## # ℹ 13 more rows
…
# See the result
prediction_data

## # A tibble: 23 × 4
##    time_since_first_purchase has_churned most_likely_outcome odds_ratio
##                        <dbl>       <dbl>               <dbl>      <dbl>
##  1                     -1.5        0.626                   1      1.68 
##  2                     -1.25       0.605                   1      1.53 
##  3                     -1          0.584                   1      1.40 
##  4                     -0.75       0.562                   1      1.29 
##  5                     -0.5        0.540                   1      1.18 
##  6                     -0.25       0.518                   1      1.08 
##  7                      0          0.496                   0      0.985
##  8                      0.25       0.474                   0      0.901
##  9                      0.5        0.452                   0      0.825
## 10                      0.75       0.430                   0      0.755
## # ℹ 13 more rows
…
# See the result
prediction_data

## # A tibble: 23 × 6
##    time_since_first_purchase has_churned most_likely_outcome odds_ratio
##                        <dbl>       <dbl>               <dbl>      <dbl>
##  1                     -1.5        0.626                   1      1.68 
##  2                     -1.25       0.605                   1      1.53 
##  3                     -1          0.584                   1      1.40 
##  4                     -0.75       0.562                   1      1.29 
##  5                     -0.5        0.540                   1      1.18 
##  6                     -0.25       0.518                   1      1.08 
##  7                      0          0.496                   0      0.985
##  8                      0.25       0.474                   0      0.901
##  9                      0.5        0.452                   0      0.825
## 10                      0.75       0.430                   0      0.755
## # ℹ 13 more rows
## # ℹ 2 more variables: log_odds_ratio <dbl>, log_odds_ratio2 <dbl>
…
