Chapter 16 Sampling in R | Data Scientist with R
…
Let’s take another look at the sampling distribution of dice rolls. This time, we’ll look at five eight-sided dice.

# Expand a grid representing 5 8-sided dice
dice <- expand_grid(
    die1 = 1:8,
    die2 = 1:8,
    die3 = 1:8,
    die4 = 1:8,
    die5 = 1:8
)

# See the result
dice

## # A tibble: 32,768 × 5
##     die1  die2  die3  die4  die5
##    <int> <int> <int> <int> <int>
##  1     1     1     1     1     1
##  2     1     1     1     1     2
##  3     1     1     1     1     3
##  4     1     1     1     1     4
##  5     1     1     1     1     5
##  6     1     1     1     1     6
##  7     1     1     1     1     7
##  8     1     1     1     1     8
##  9     1     1     1     2     1
## 10     1     1     1     2     2
## # ℹ 32,758 more rows

Add a column, mean_roll, to dice, that contains the mean of the five rolls.

dice <- dice %>% 
  # Add a column of mean rolls
  mutate(mean_roll = rowSums(.)/ncol(.))

dice

## # A tibble: 32,768 × 6
##     die1  die2  die3  die4  die5 mean_roll
##    <int> <int> <int> <int> <int>     <dbl>
##  1     1     1     1     1     1       1  
##  2     1     1     1     1     2       1.2
##  3     1     1     1     1     3       1.4
##  4     1     1     1     1     4       1.6
##  5     1     1     1     1     5       1.8
##  6     1     1     1     1     6       2  
##  7     1     1     1     1     7       2.2
##  8     1     1     1     1     8       2.4
##  9     1     1     1     2     1       1.2
## 10     1     1     1     2     2       1.4
## # ℹ 32,758 more rows
…
# See the result
str(sample_means_1000)

##  num [1:1000] 4.6 4.4 5.4 5.8 2.2 4.8 5.6 4.6 6.8 3.6 ...

# Wrap sample_means_1000 in the sample_mean column of a tibble
sample_means <- tibble(sample_mean = sample_means_1000)

# See the result
sample_means

## # A tibble: 1,000 × 1
##    sample_mean
##          <dbl>
##  1         4.6
##  2         4.4
##  3         5.4
##  4         5.8
##  5         2.2
##  6         4.8
##  7         5.6
##  8         4.6
##  9         6.8
## 10         3.6
## # ℹ 990 more rows
…
# sample size = 5
sampling_distribution_5 <- sampling_distribution_fun(5)
sampling_distribution_5

## # A tibble: 1,000 × 1
##    mean_attrition
##             <dbl>
##  1            0  
##  2            0  
##  3            0  
##  4            0  
##  5            0  
##  6            0.4
##  7            0.2
##  8            0.2
##  9            0  
## 10            0.4
## # ℹ 990 more rows

# sample size = 50
sampling_distribution_50 <- sampling_distribution_fun(50)
sampling_distribution_50

## # A tibble: 1,000 × 1
##    mean_attrition
##             <dbl>
##  1           0.24
##  2           0.1 
##  3           0.1 
##  4           0.26
##  5           0.1 
##  6           0.16
##  7           0.2 
##  8           0.2 
##  9           0.16
## 10           0.08
## # ℹ 990 more rows

sampling_distribution_500 <- sampling_distribution_fun(500)
sampling_distribution_500

## # A tibble: 1,000 × 1
##    mean_attrition
##             <dbl>
##  1          0.152
##  2          0.2  
##  3          0.15 
##  4          0.15 
##  5          0.172
##  6          0.182
##  7          0.152
##  8          0.152
##  9          0.176
## 10          0.166
## # ℹ 990 more rows
…
# See the result
str(mean_popularity_2000_boot)

##  num [1:2000] 54.9 55.2 55.2 55 55.3 ...

16.4.2.2 Compare sampling and bootstrap means

# create tibble to compare
sampling_distribution <- tibble(sample_mean = mean_popularity_2000_samp)
bootstrap_distribution <- tibble(resample_mean = mean_popularity_2000_boot)

sampling_distribution

## # A tibble: 2,000 × 1
##    sample_mean
##          <dbl>
##  1        54.6
##  2        53.6
##  3        55.0
##  4        55.5
##  5        54.0
##  6        55.4
##  7        54.9
##  8        55.0
##  9        54.4
## 10        54.9
## # ℹ 1,990 more rows

bootstrap_distribution

## # A tibble: 2,000 × 1
##    resample_mean
##            <dbl>
##  1          54.9
##  2          55.2
##  3          55.2
##  4          55.0
##  5          55.3
##  6          55.5
##  7          54.6
##  8          54.3
##  9          55.1
## 10          55.7
## # ℹ 1,990 more rows
…
