Chapter 19 Supervised Learning: Classification | Data Scientist with R
…
Stop Sign

Apply a kNN classifier to help the car recognize this sign.

The dataset signs is loaded in your workspace along with the data frame next_sign, which holds the observation you want to classify.

library(tidyverse)

signs <- read_csv("data/knn_traffic_signs.csv")
signs

## # A tibble: 206 × 51
##       id sample sign_type     r1    g1    b1    r2    g2    b2    r3    g3    b3
##    <dbl> <chr>  <chr>      <dbl> <dbl> <dbl> <dbl> <dbl> <dbl> <dbl> <dbl> <dbl>
##  1     1 train  pedestrian   155   228   251   135   188   101   156   227   245
##  2     2 train  pedestrian   142   217   242   166   204    44   142   217   242
##  3     3 train  pedestrian    57    54    50   187   201    68    51    51    45
##  4     4 train  pedestrian    22    35    41   171   178    26    19    27    29
##  5     5 train  pedestrian   169   179   170   231   254    27    97   107    99
##  6     6 train  pedestrian    75    67    60   131    89    53   214   144    75
##  7     7 train  pedestrian   136   149   157   200   203   107   150   167   134
##  8     8 test   pedestrian   118   105    69   244   245    67   132   123    12
##  9     9 train  pedestrian   149   225   241    34    45     1   155   226   238
## 10    10 train  pedestrian    13    34    28     5    21    11   123   154   140
## # ℹ 196 more rows
## # ℹ 39 more variables: r4 <dbl>, g4 <dbl>, b4 <dbl>, r5 <dbl>, g5 <dbl>,
## #   b5 <dbl>, r6 <dbl>, g6 <dbl>, b6 <dbl>, r7 <dbl>, g7 <dbl>, b7 <dbl>,
## #   r8 <dbl>, g8 <dbl>, b8 <dbl>, r9 <dbl>, g9 <dbl>, b9 <dbl>, r10 <dbl>,
## #   g10 <dbl>, b10 <dbl>, r11 <dbl>, g11 <dbl>, b11 <dbl>, r12 <dbl>,
## #   g12 <dbl>, b12 <dbl>, r13 <dbl>, g13 <dbl>, b13 <dbl>, r14 <dbl>,
## #   g14 <dbl>, b14 <dbl>, r15 <dbl>, g15 <dbl>, b15 <dbl>, r16 <dbl>, …
…
# Training data
signs <- signs %>%
    filter(sample == "train") %>%
    select(-c(1, 2))

signs

## # A tibble: 146 × 49
##    sign_type     r1    g1    b1    r2    g2    b2    r3    g3    b3    r4    g4
##    <chr>      <dbl> <dbl> <dbl> <dbl> <dbl> <dbl> <dbl> <dbl> <dbl> <dbl> <dbl>
##  1 pedestrian   155   228   251   135   188   101   156   227   245   145   211
##  2 pedestrian   142   217   242   166   204    44   142   217   242   147   219
##  3 pedestrian    57    54    50   187   201    68    51    51    45    59    62
##  4 pedestrian    22    35    41   171   178    26    19    27    29    19    27
##  5 pedestrian   169   179   170   231   254    27    97   107    99   123   147
##  6 pedestrian    75    67    60   131    89    53   214   144    75   156   169
##  7 pedestrian   136   149   157   200   203   107   150   167   134   171   218
##  8 pedestrian   149   225   241    34    45     1   155   226   238   147   222
##  9 pedestrian    13    34    28     5    21    11   123   154   140    21    46
## 10 pedestrian   123   124   107    83    61    26   116   124   115    67    67
## # ℹ 136 more rows
## # ℹ 37 more variables: b4 <dbl>, r5 <dbl>, g5 <dbl>, b5 <dbl>, r6 <dbl>,
## #   g6 <dbl>, b6 <dbl>, r7 <dbl>, g7 <dbl>, b7 <dbl>, r8 <dbl>, g8 <dbl>,
## #   b8 <dbl>, r9 <dbl>, g9 <dbl>, b9 <dbl>, r10 <dbl>, g10 <dbl>, b10 <dbl>,
## #   r11 <dbl>, g11 <dbl>, b11 <dbl>, r12 <dbl>, g12 <dbl>, b12 <dbl>,
## #   r13 <dbl>, g13 <dbl>, b13 <dbl>, r14 <dbl>, g14 <dbl>, b14 <dbl>,
## #   r15 <dbl>, g15 <dbl>, b15 <dbl>, r16 <dbl>, g16 <dbl>, b16 <dbl>
…
At the conclusion of the trial, you are asked to measure the car’s overall performance at recognizing these signs.

So is the data frame test_signs, which holds a set of observations you’ll test your model on.

# whole testing data
test_signs <- read_csv("data/knn_traffic_signs.csv") %>%
    filter(sample == "test") %>%
    select(-c(1, 2))

test_signs

## # A tibble: 59 × 49
##    sign_type     r1    g1    b1    r2    g2    b2    r3    g3    b3    r4    g4
##    <chr>      <dbl> <dbl> <dbl> <dbl> <dbl> <dbl> <dbl> <dbl> <dbl> <dbl> <dbl>
##  1 pedestrian   118   105    69   244   245    67   132   123    12   138   123
##  2 pedestrian   221   244   237    52    45    26   205   233   229   203   230
##  3 pedestrian    44    50    43    98    69    25   170   182   172   170   182
##  4 pedestrian    78   106   102    98   125    82    65    91    75   100   122
##  5 pedestrian   163   181   172    53    51    36   170   181   171    44    51
##  6 pedestrian   117   137   132   116   105    67    58    53    27    37    49
##  7 pedestrian   204   227   224    27    44    11   140   163   140    69    83
##  8 pedestrian    69    74    60    35    52     4    62    68    58   148   156
##  9 pedestrian   186   213   210    30    51    18   181   212   187   146   170
## 10 pedestrian    77    94    89   147   180   100   125   156    84    51    59
## # ℹ 49 more rows
## # ℹ 37 more variables: b4 <dbl>, r5 <dbl>, g5 <dbl>, b5 <dbl>, r6 <dbl>,
## #   g6 <dbl>, b6 <dbl>, r7 <dbl>, g7 <dbl>, b7 <dbl>, r8 <dbl>, g8 <dbl>,
## #   b8 <dbl>, r9 <dbl>, g9 <dbl>, b9 <dbl>, r10 <dbl>, g10 <dbl>, b10 <dbl>,
## #   r11 <dbl>, g11 <dbl>, b11 <dbl>, r12 <dbl>, g12 <dbl>, b12 <dbl>,
## #   r13 <dbl>, g13 <dbl>, b13 <dbl>, r14 <dbl>, g14 <dbl>, b14 <dbl>,
## #   r15 <dbl>, g15 <dbl>, b15 <dbl>, r16 <dbl>, g16 <dbl>, b16 <dbl>
…
# building a Naive Bayes model
library(naivebayes)
model <- naive_bayes(y ~ x, data)

# making predictions with Naive Bayes
future_predict <- predict(model, future_conditions)

19.2.1.1 Computing probabilities

Calculations like these are the basis of the Naive Bayes destination prediction model you’ll develop in later exercises.

location <- read_csv("data/locations.csv")
location

## # A tibble: 2,184 × 7
##    month   day weekday   daytype  hour hourtype location
##    <dbl> <dbl> <chr>     <chr>   <dbl> <chr>    <chr>   
##  1     1     4 wednesday weekday     0 night    home    
##  2     1     4 wednesday weekday     1 night    home    
##  3     1     4 wednesday weekday     2 night    home    
##  4     1     4 wednesday weekday     3 night    home    
##  5     1     4 wednesday weekday     4 night    home    
##  6     1     4 wednesday weekday     5 night    home    
##  7     1     4 wednesday weekday     6 morning  home    
##  8     1     4 wednesday weekday     7 morning  home    
##  9     1     4 wednesday weekday     8 morning  home    
## 10     1     4 wednesday weekday     9 morning  office  
## # ℹ 2,174 more rows

The where9am data frame contains 91 days (thirteen weeks) worth of data in which Brett recorded his location at 9am each day as well as whether the daytype was a weekend or weekday.

where9am <- location %>%
    filter(hour == 9) %>%
    select(daytype, location) %>%
    mutate(location = factor(location, levels = c("appointment", "campus", "home", "office")))

where9am

## # A tibble: 91 × 2
##    daytype location   
##    <chr>   <fct>      
##  1 weekday office     
##  2 weekday office     
##  3 weekday office     
##  4 weekend home       
##  5 weekend home       
##  6 weekday campus     
##  7 weekday home       
##  8 weekday appointment
##  9 weekday office     
## 10 weekday office     
## # ℹ 81 more rows
…
