Chapter 11 Working with Dates and Times in R | Data Scientist with R
…
# Examine structure of datetime column
str(releases$datetime)

##  POSIXct[1:105], format: "1997-12-04 08:47:58" "1997-12-21 13:09:22" "1998-01-10 00:31:55" ...

11.1.3.2 Plot

# Import "cran-logs_2015-04-17.csv" with read_csv()
logs <- read_csv("data/cran-logs_2015-04-17.csv")

# Print logs
print(logs)

## # A tibble: 100,000 × 3
##    datetime            r_version country
##    <dttm>              <chr>     <chr>  
##  1 2015-04-16 22:40:19 3.1.3     CO     
##  2 2015-04-16 09:11:04 3.1.3     GB     
##  3 2015-04-16 17:12:37 3.1.3     DE     
##  4 2015-04-18 12:34:43 3.2.0     GB     
##  5 2015-04-16 04:49:18 3.1.3     PE     
##  6 2015-04-16 06:40:44 3.1.3     TW     
##  7 2015-04-16 00:21:36 3.1.3     US     
##  8 2015-04-16 10:27:23 3.1.3     US     
##  9 2015-04-16 01:59:43 3.1.3     SG     
## 10 2015-04-18 15:41:32 3.2.0     CA     
## # ℹ 99,990 more rows

# Store the release time as a POSIXct object
release_time <- as.POSIXct("2015-04-16 07:13:33", tz = "UTC")

# When is the first download of 3.2.0?
logs %>% 
  filter(datetime > release_time, r_version == "3.2.0") %>%
  arrange(datetime)

## # A tibble: 35,826 × 3
##    datetime            r_version country
##    <dttm>              <chr>     <chr>  
##  1 2015-04-16 07:20:06 3.2.0     GB     
##  2 2015-04-16 07:30:18 3.2.0     ES     
##  3 2015-04-16 07:36:04 3.2.0     US     
##  4 2015-04-16 07:36:38 3.2.0     IN     
##  5 2015-04-16 07:39:17 3.2.0     FI     
##  6 2015-04-16 07:39:34 3.2.0     UA     
##  7 2015-04-16 07:39:37 3.2.0     DE     
##  8 2015-04-16 07:40:13 3.2.0     DE     
##  9 2015-04-16 07:40:33 3.2.0     US     
## 10 2015-04-16 07:43:29 3.2.0     KR     
## # ℹ 35,816 more rows
…
make_datetime adds hour, min and sec arguments to build a datetime.

make_datetime(year, month, day, hour, min, sec)

11.2.2.1 Import daily weather data

library(tidyverse)

# Import CSV with read_csv()
akl_daily_raw <- read_csv("data/akl_weather_daily.csv")

# Print akl_daily_raw
print(akl_daily_raw)

## # A tibble: 3,661 × 7
##    date      max_temp min_temp mean_temp mean_rh events cloud_cover
##    <chr>        <dbl>    <dbl>     <dbl>   <dbl> <chr>        <dbl>
##  1 2007-9-1        60       51        56      75 <NA>             4
##  2 2007-9-2        60       53        56      82 Rain             4
##  3 2007-9-3        57       51        54      78 <NA>             6
##  4 2007-9-4        64       50        57      80 Rain             6
##  5 2007-9-5        53       48        50      90 Rain             7
##  6 2007-9-6        57       42        50      69 <NA>             1
##  7 2007-9-7        59       41        50      77 <NA>             4
##  8 2007-9-8        59       46        52      80 <NA>             5
##  9 2007-9-9        55       50        52      88 Rain             7
## 10 2007-9-10       59       50        54      82 Rain             4
## # ℹ 3,651 more rows

# Parse date 
akl_daily <- akl_daily_raw %>%
  mutate(date = ymd(date))

# Print akl_daily
print(akl_daily)

## # A tibble: 3,661 × 7
##    date       max_temp min_temp mean_temp mean_rh events cloud_cover
##    <date>        <dbl>    <dbl>     <dbl>   <dbl> <chr>        <dbl>
##  1 2007-09-01       60       51        56      75 <NA>             4
##  2 2007-09-02       60       53        56      82 Rain             4
##  3 2007-09-03       57       51        54      78 <NA>             6
##  4 2007-09-04       64       50        57      80 Rain             6
##  5 2007-09-05       53       48        50      90 Rain             7
##  6 2007-09-06       57       42        50      69 <NA>             1
##  7 2007-09-07       59       41        50      77 <NA>             4
##  8 2007-09-08       59       46        52      80 <NA>             5
##  9 2007-09-09       55       50        52      88 Rain             7
## 10 2007-09-10       59       50        54      82 Rain             4
## # ℹ 3,651 more rows
…
11.2.2.2 Import hourly weather data

The date information is spread over three columns year, month and mday, so you’ll need to use make_date() to combine them.

time information is in a separate time column.

One way to construct the datetimes is to paste the date and time together and then parse them.

# Import "akl_weather_hourly_2016.csv"
akl_hourly_raw <- read_csv("data/akl_weather_hourly_2016.csv")

# Print akl_hourly_raw
print(akl_hourly_raw)

## # A tibble: 17,454 × 10
##     year month  mday time   temperature weather conditions       events humidity
##    <dbl> <dbl> <dbl> <time>       <dbl> <chr>   <chr>            <chr>     <dbl>
##  1  2016     1     1 00:00         68   Clear   Clear            <NA>         68
##  2  2016     1     1 00:30         68   Clear   Clear            <NA>         68
##  3  2016     1     1 01:00         68   Clear   Clear            <NA>         73
##  4  2016     1     1 01:30         68   Clear   Clear            <NA>         68
##  5  2016     1     1 02:00         68   Clear   Clear            <NA>         68
##  6  2016     1     1 02:30         68   Clear   Clear            <NA>         68
##  7  2016     1     1 03:00         68   Clear   Clear            <NA>         68
##  8  2016     1     1 03:30         68   Cloudy  Partly Cloudy    <NA>         68
##  9  2016     1     1 04:00         68   Cloudy  Scattered Clouds <NA>         68
## 10  2016     1     1 04:30         66.2 Cloudy  Partly Cloudy    <NA>         73
## # ℹ 17,444 more rows
## # ℹ 1 more variable: date_utc <dttm>
# Use make_date() to combine year, month and mday 
akl_hourly  <- akl_hourly_raw  %>% 
  mutate(date = make_date(year = year, month = month, day = mday))

# Parse datetime_string 
akl_hourly <- akl_hourly  %>% 
  mutate(
    datetime_string = paste(date, time, sep = "T"),
    datetime = ymd_hms(datetime_string)
  )

# Print date, time and datetime columns of akl_hourly
akl_hourly %>% select(date, time, datetime)

## # A tibble: 17,454 × 3
##    date       time   datetime           
##    <date>     <time> <dttm>             
##  1 2016-01-01 00:00  2016-01-01 00:00:00
##  2 2016-01-01 00:30  2016-01-01 00:30:00
##  3 2016-01-01 01:00  2016-01-01 01:00:00
##  4 2016-01-01 01:30  2016-01-01 01:30:00
##  5 2016-01-01 02:00  2016-01-01 02:00:00
##  6 2016-01-01 02:30  2016-01-01 02:30:00
##  7 2016-01-01 03:00  2016-01-01 03:00:00
##  8 2016-01-01 03:30  2016-01-01 03:30:00
##  9 2016-01-01 04:00  2016-01-01 04:00:00
## 10 2016-01-01 04:30  2016-01-01 04:30:00
## # ℹ 17,444 more rows
…
The first step is to create some new columns to hold the extracted pieces, then you’ll use them in a couple of plots.

# Add columns for year, yday and month
akl_daily <- akl_daily %>%
  mutate(
    year = lubridate::year(date),
    yday = lubridate::yday(date),
    month = lubridate::month(date, label = TRUE))

# Take a look of mutate outcome
akl_daily %>% select(date, year, yday, month)

## # A tibble: 3,661 × 4
##    date        year  yday month
##    <date>     <dbl> <dbl> <ord>
##  1 2007-09-01  2007   244 Sep  
##  2 2007-09-02  2007   245 Sep  
##  3 2007-09-03  2007   246 Sep  
##  4 2007-09-04  2007   247 Sep  
##  5 2007-09-05  2007   248 Sep  
##  6 2007-09-06  2007   249 Sep  
##  7 2007-09-07  2007   250 Sep  
##  8 2007-09-08  2007   251 Sep  
##  9 2007-09-09  2007   252 Sep  
## 10 2007-09-10  2007   253 Sep  
## # ℹ 3,651 more rows
…
# Create new columns hour, month and rainy
akl_hourly <- akl_hourly %>%
  mutate(
    hour = lubridate::hour(datetime),
    month = lubridate::month(datetime, label = TRUE),
    rainy = weather == "Precipitation"
  )

akl_hourly %>% select(datetime, date, hour, month, rainy)

## # A tibble: 17,454 × 5
##    datetime            date        hour month rainy
##    <dttm>              <date>     <int> <ord> <lgl>
##  1 2016-01-01 00:00:00 2016-01-01     0 Jan   FALSE
##  2 2016-01-01 00:30:00 2016-01-01     0 Jan   FALSE
##  3 2016-01-01 01:00:00 2016-01-01     1 Jan   FALSE
##  4 2016-01-01 01:30:00 2016-01-01     1 Jan   FALSE
##  5 2016-01-01 02:00:00 2016-01-01     2 Jan   FALSE
##  6 2016-01-01 02:30:00 2016-01-01     2 Jan   FALSE
##  7 2016-01-01 03:00:00 2016-01-01     3 Jan   FALSE
##  8 2016-01-01 03:30:00 2016-01-01     3 Jan   FALSE
##  9 2016-01-01 04:00:00 2016-01-01     4 Jan   FALSE
## 10 2016-01-01 04:30:00 2016-01-01     4 Jan   FALSE
## # ℹ 17,444 more rows
…
# Summarise for each date if there is any rain
rainy_days <- akl_day %>% 
  group_by(month, date) %>%
  summarise(
    any_rain = any(rainy)
  )

## `summarise()` has grouped output by 'month'.
## You can override using the `.groups`
## argument.

rainy_days

## # A tibble: 366 × 3
## # Groups:   month [12]
##    month date       any_rain
##    <ord> <date>     <lgl>   
##  1 Jan   2016-01-01 TRUE    
##  2 Jan   2016-01-02 TRUE    
##  3 Jan   2016-01-03 TRUE    
##  4 Jan   2016-01-04 FALSE   
##  5 Jan   2016-01-05 FALSE   
##  6 Jan   2016-01-06 FALSE   
##  7 Jan   2016-01-07 TRUE    
##  8 Jan   2016-01-08 TRUE    
##  9 Jan   2016-01-09 FALSE   
## 10 Jan   2016-01-10 FALSE   
## # ℹ 356 more rows
…
11.2.4.2 Rounding with the weather data

The advantage of rounding over extracting is that it maintains the context of the unit.

You’ll explore how many observations per hour there really are in the hourly Auckland weather data.

# Create day_hour, datetime rounded down to hour
akl_hourly <- akl_hourly %>%
  mutate(
    day_hour = floor_date(datetime, unit = "hour")
  )

akl_hourly %>% select(datetime, day_hour)

## # A tibble: 17,454 × 2
##    datetime            day_hour           
##    <dttm>              <dttm>             
##  1 2016-01-01 00:00:00 2016-01-01 00:00:00
##  2 2016-01-01 00:30:00 2016-01-01 00:00:00
##  3 2016-01-01 01:00:00 2016-01-01 01:00:00
##  4 2016-01-01 01:30:00 2016-01-01 01:00:00
##  5 2016-01-01 02:00:00 2016-01-01 02:00:00
##  6 2016-01-01 02:30:00 2016-01-01 02:00:00
##  7 2016-01-01 03:00:00 2016-01-01 03:00:00
##  8 2016-01-01 03:30:00 2016-01-01 03:00:00
##  9 2016-01-01 04:00:00 2016-01-01 04:00:00
## 10 2016-01-01 04:30:00 2016-01-01 04:00:00
## # ℹ 17,444 more rows

Count how many observations there are in each hour. What looks like the most common value?

# Count observations per hour  
akl_hourly %>% 
  count(day_hour) 

## # A tibble: 8,770 × 2
##    day_hour                n
##    <dttm>              <int>
##  1 2016-01-01 00:00:00     2
##  2 2016-01-01 01:00:00     2
##  3 2016-01-01 02:00:00     2
##  4 2016-01-01 03:00:00     2
##  5 2016-01-01 04:00:00     2
##  6 2016-01-01 05:00:00     2
##  7 2016-01-01 06:00:00     2
##  8 2016-01-01 07:00:00     2
##  9 2016-01-01 08:00:00     2
## 10 2016-01-01 09:00:00     2
## # ℹ 8,760 more rows

Filter for observations where n is not equal to 2.

# Find day_hours with n != 2  
akl_hourly %>% 
  count(day_hour) %>%
  filter(n != 2) %>% 
  arrange(desc(n))

## # A tibble: 92 × 2
##    day_hour                n
##    <dttm>              <int>
##  1 2016-04-03 02:00:00     4
##  2 2016-09-25 00:00:00     4
##  3 2016-06-26 09:00:00     1
##  4 2016-09-01 23:00:00     1
##  5 2016-09-02 01:00:00     1
##  6 2016-09-04 11:00:00     1
##  7 2016-09-04 16:00:00     1
##  8 2016-09-04 17:00:00     1
##  9 2016-09-05 00:00:00     1
## 10 2016-09-05 15:00:00     1
## # ℹ 82 more rows
…
## tibble [131 × 4] (S3: tbl_df/tbl/data.frame)
##  $ name    : chr [1:131] "Elizabeth II" "Victoria" "George V" "George III" ...
##  $ from    : chr [1:131] "1952-02-06 00:00:00" "1837-06-20 00:00:00" "1910-05-06 00:00:00" "1801-01-01 00:00:00" ...
##  $ to      : chr [1:131] "2022-07-04 00:00:00" "1901-01-22 00:00:00" "1936-01-20 00:00:00" "1820-01-29 00:00:00" ...
##  $ dominion: chr [1:131] "United Ki" "United Ki" "United Ki" "United Ki" ...

# Convert data type
monarchs <- monarchs %>%
    mutate(from = as.POSIXct(from, format = "%Y-%m-%d %H:%M:%S"),
           to = as.POSIXct(to, format = "%Y-%m-%d %H:%M:%S"))

monarchs

## # A tibble: 131 × 4
##    name                     from                to                  dominion 
##    <chr>                    <dttm>              <dttm>              <chr>    
##  1 Elizabeth II             1952-02-06 00:00:00 2022-07-04 00:00:00 United Ki
##  2 Victoria                 1837-06-20 00:00:00 1901-01-22 00:00:00 United Ki
##  3 George V                 1910-05-06 00:00:00 1936-01-20 00:00:00 United Ki
##  4 George III               1801-01-01 00:00:00 1820-01-29 00:00:00 United Ki
##  5 George VI                1936-12-11 00:00:00 1952-02-06 00:00:00 United Ki
##  6 George IV                1820-01-29 00:00:00 1830-06-26 00:00:00 United Ki
##  7 Edward VII               1901-01-22 00:00:00 1910-05-06 00:00:00 United Ki
##  8 William IV               1830-06-26 00:00:00 1837-06-20 00:00:00 United Ki
##  9 Edward VIII              1936-01-20 00:00:00 1936-12-11 00:00:00 United Ki
## 10 George III(also United ~ 1760-10-25 00:00:00 1801-01-01 00:00:00 Great Bri
## # ℹ 121 more rows

# Create an interval for reign
monarchs <- monarchs %>%
  mutate(reign = from %--% to) 

# Find the length of reign, and arrange
monarchs %>%
  mutate(length = int_length(reign)) %>% 
  arrange(desc(length)) %>%
  select(name, length, dominion)

## # A tibble: 131 × 3
##    name                   length dominion 
##    <chr>                   <dbl> <chr>    
##  1 Elizabeth II       2221862400 United Ki
##  2 Victoria           2006726760 United Ki
##  3 James VI           1820102400 Scotland 
##  4 Gruffudd ap Cynan  1767139200 Gwynedd  
##  5 Edward III         1590624000 England  
##  6 William I          1545868800 Scotland 
##  7 Llywelyn the Great 1428796800 Gwynedd  
##  8 Elizabeth I        1399507200 England  
##  9 Constantine II     1356912000 Scotland 
## 10 David II           1316304000 Scotland 
## # ℹ 121 more rows
…
perihelion_date is the date the Comet is closest to the Sun.

start_date and end_date are the range of dates the comet is visible from Earth.

# convert data type
halleys <- halleys %>%
    mutate(perihelion_date = as.Date(perihelion_date, format = "%Y-%m-%d"),
           start_date = as.Date(start_date, format = "%Y-%m-%d"),
           end_date = as.Date(end_date, format = "%Y-%m-%d"))

halleys

## # A tibble: 27 × 6
##    designation     year perihelion_date start_date end_date   distance
##    <chr>          <dbl> <date>          <date>     <date>     <chr>   
##  1 1P/66 B1, 66      66 1966-01-26      1966-01-26 1966-01-26 NA      
##  2 1P/141 F1, 141   141 0141-03-25      0141-03-22 0141-03-25 NA      
##  3 1P/218 H1, 218   218 0218-04-06      0218-04-06 0218-05-17 NA      
##  4 1P/295 J1, 295   295 0295-04-07      0295-04-07 0295-04-20 NA      
##  5 1P/374 E1, 374   374 0374-02-13      0374-02-13 0374-02-16 0.09 AU 
##  6 1P/451 L1, 451   451 0451-07-03      0451-06-28 0451-07-03 NA      
##  7 1P/530 Q1, 530   530 0530-11-15      0530-09-27 0530-11-15 NA      
##  8 1P/607 H1, 607   607 0607-03-26      0607-03-15 0607-03-26 0.09 AU 
##  9 1P/684 R1, 684   684 0684-11-26      0684-10-02 0684-11-26 NA      
## 10 1P/760 K1, 760   760 0760-06-10      0760-05-20 0760-06-10 NA      
## # ℹ 17 more rows
…
Calculate both the exact number of seconds elapsed between the start and end date, as well as the perceived change in clock time.

Try to get better representations of the length of the monarchs reigns.

# New columns for duration and period
monarchs <- monarchs %>%
  mutate(
    duration = as.duration(reign),
    period = as.period(reign)) 
    
# Examine results    
monarchs %>%
  select(name, duration, period)

## # A tibble: 131 × 3
##    name                     duration                   period             
##    <chr>                    <Duration>                 <Period>           
##  1 Elizabeth II             2221862400s (~70.41 years) 70y 4m 28d 0H 0M 0S
##  2 Victoria                 2006726760s (~63.59 years) 63y 7m 2d 0H 0M 0S 
##  3 George V                 811296000s (~25.71 years)  25y 8m 14d 0H 0M 0S
##  4 George III               601948800s (~19.07 years)  19y 0m 28d 0H 0M 0S
##  5 George VI                478224000s (~15.15 years)  15y 1m 26d 0H 0M 0S
##  6 George IV                328406400s (~10.41 years)  10y 4m 28d 0H 0M 0S
##  7 Edward VII               292982400s (~9.28 years)   9y 3m 14d 0H 0M 0S 
##  8 William IV               220406400s (~6.98 years)   6y 11m 25d 0H 0M 0S
##  9 Edward VIII              28166400s (~46.57 weeks)   10m 21d 0H 0M 0S   
## 10 George III(also United ~ 1268092800s (~40.18 years) 40y 2m 7d 0H 0M 0S 
## # ℹ 121 more rows
…
